[
  {
    "title": "【拉斐官方旗舰店】拉斐庄园2009珍藏原酒进口红酒干红葡萄酒 红酒整箱6支750ml*6 送醒酒器礼盒套装",
    "detail": "//item.jd.com/12415678791.html",
    "img": "//img11.360buyimg.com/jdcms/s150x150_jfs/t1/12100/14/14338/186405/5ca40ef7E04fc735e/bd959bb36b44052c.jpg!q90!cc_170x170.webp",
    "price": "￥298.00"
  },
  {
    "title": "薯片量贩装山药脆片山药薄片锅巴零食山药薯片混合口味大包装 单包量贩实惠装薯片",
    "detail": "//item.jd.com/40104710746.html",
    "img": "//img14.360buyimg.com/jdcms/s150x150_jfs/t1/21530/39/4314/167065/5c316dc7Ea6900796/b156a5ea359031d6.jpg!q90!cc_170x170.webp",
    "price": "￥11.15"
  },
  {
    "title": "美菱(MELING)569升 对开门双开门电冰箱 双变频一级能效 节能静音风冷无霜 两门大容量 玫瑰金 BCD-569WPCX",
    "detail": "//item.jd.com/6371310.html",
    "img": "//img30.360buyimg.com/jdcms/s150x150_jfs/t1/46760/27/138/204842/5cd2f942E3bb17e39/866310e391656ef5.jpg!q90!cc_170x170.webp",
    "price": "￥3197.00"
  },
  {
    "title": "【仅售19.9元】【厂家直销 品质保证】双肩包女包2019新款韩版防水背包女百搭时尚休闲潮流包包",
    "detail": "//item.jd.com/31125717437.html",
    "img": "//img13.360buyimg.com/jdcms/s150x150_jfs/t29758/150/1633671975/118026/7df3955f/5ce63c4aN7c99c77b.jpg!q90!cc_170x170.webp",
    "price": "￥99.00"
  },
  {
    "detail": "https://ccc-x.jd.com/dsp/nc?ext=aHR0cHM6Ly9tYWxsLmpkLmNvbS9pbmRleC02NDU1ODIuaHRtbA&log=XaOr2r69r4HZI-YNh15aJtkfSIIJ_GZMCQd7RX_EQIgPHOk_PMxYmK8_WvIKWkarWWt1NU3mqQAw7miLIFgu0NQ5di_uzju6h82eX8p0-r8jq5Glzd95DcXR7e4ITnmzoblA28rZ0r-FDvlOYwlyWgA2qNMYVhyFtfj8FeIs-XdKGO_AYg8i_dJdDXJSggnRdI_Ksz9lzoj4IjJelKc8e4cSM1u2KCRjo_SzloI7_tM8F9yx9082561GwMiflYwHGeMWjJoMIjejyurN-b-RTpUxNCP5sfaKonxxGqxTm8g3gxqzzQNben4yEF6RTympo33fs4Y8NbMMjmZXHIJ5hsjDH5Ostc-7aqS3KG0mO3AhR6hVkLzhUBWxIgilOXSMc0DGwXN2KClmOHJMmcdoVc_UYyQpvDKbK2K4dnPFX6GQElFroANddwB8mdTSH8XajwvQLlx8AZDSavqUdW1n8XEmhh4pII0YA5vGRakHUtYg-JCnrzL7oa-bwDIHOlVz&v=404",
    "img": "//img1.360buyimg.com/pop/s230x306_jfs/t1/40457/14/6841/21085/5cd50ff8Eef9a543d/bb61479339886bb9.jpg!q90!cc_230x306",
    "price": "￥"
  },
  {
    "title": "乐尔康全自动按摩椅家用多功能零重力太空舱SL轨迹全身揉捏推拿电动按摩沙发 金色音乐款",
    "detail": "//item.jd.com/45482503865.html",
    "img": "//img14.360buyimg.com/jdcms/s150x150_jfs/t29134/310/1614596057/146715/4cf3b8aa/5ce63cd0N17468888.jpg!q90!cc_170x170.webp",
    "price": "￥4180.00"
  },
  {
    "title": "赛洛玛 不锈钢餐具套装 便携餐具 不锈钢筷子 叉子 勺子 陶瓷握把 餐具三件套装 陶瓷握把蓝色三件套",
    "detail": "//item.jd.com/42979350372.html",
    "img": "//img14.360buyimg.com/jdcms/s150x150_jfs/t1/28776/24/10056/136043/5c839054E78f7d0e1/9455171dd6c81008.jpg!q90!cc_170x170.webp",
    "price": "￥10.00"
  },
  {
    "title": "极米（XGIMI）Z6 投影仪 投影机家用（1080P全高清 哈曼卡顿音响 四方梯形校正 运动补偿 AI语音操控）",
    "detail": "//item.jd.com/6542733.html",
    "img": "//img30.360buyimg.com/jdcms/s150x150_jfs/t1/29182/27/11496/124207/5c8f4a7cE9cbd1e12/00816fa5ab58d81c.jpg!q90!cc_170x170.webp",
    "price": "￥2649.00"
  },
  {
    "title": "飞科(FLYCO)电动剃须刀三刀头全身水洗干湿双剃刮胡刀剃胡刀胡须刀FS372",
    "detail": "//item.jd.com/1195551.html",
    "img": "//img11.360buyimg.com/jdcms/s150x150_jfs/t1/46324/12/394/75351/5cd551a9Eec5c8910/ff56375f7e41a7cc.jpg!q90!cc_170x170.webp",
    "price": "￥89.00"
  },
  {
    "title": "康奈男鞋 2019年夏季男士一脚蹬商务休闲皮鞋舒适商务套脚冲孔鞋简约轻质镂空正装鞋 18293028 黑色（镂空款） 39",
    "detail": "//item.jd.com/42760398970.html",
    "img": "//img14.360buyimg.com/jdcms/s150x150_jfs/t1/30164/8/4534/98922/5c7f7499E14a4681f/8b8edadafcce607f.jpg!q90!cc_170x170.webp",
    "price": "￥239.00"
  },
  {
    "img": "//img14.360buyimg.com/mobilecms/s210x110_jfs/t18619/125/1315052849/848049/641a2ed6/5ac4e9a7N5ab530e7.png!q90!cc_210x110",
    "price": "￥"
  },
  {
    "title": "南极人 拖鞋洗澡漏水防滑情侣居家浴室拖鞋 男款深蓝色44-45码18001",
    "detail": "//item.jd.com/4543061.html",
    "img": "//img14.360buyimg.com/jdcms/s150x150_jfs/t1/10367/30/10399/587591/5c65129eE92014ef6/c960e086fa057a50.jpg!q90!cc_170x170.webp",
    "price": "￥19.0018.00"
  },
  {
    "title": "狄派 i7升八核台式机电脑主机 /双硬盘/GTX1060/游戏电竞3D渲染吃鸡组装电脑整机全套 主机+27寸曲面电竞显示器 套餐二（八核/1060独显/120G+1T双硬盘）",
    "detail": "//item.jd.com/10265477083.html",
    "img": "//img11.360buyimg.com/jdcms/s150x150_jfs/t1/36620/22/7501/132536/5cc7f64cE7600fe45/0d0660e494a6a319.jpg!q90!cc_170x170.webp",
    "price": "￥3899.00"
  },
  {
    "title": "圣罗兰（YSL）纯口红1#（正红色）",
    "detail": "//item.jd.com/3667999.html",
    "img": "//img13.360buyimg.com/jdcms/s150x150_jfs/t7198/163/412206933/160938/e18b1d4f/598031abN1c831ffa.jpg!q90!cc_170x170.webp",
    "price": "￥308.00"
  },
  {
    "title": "陈升号茶叶官方旗舰店 2018年 陈升号 老班章 357g 陈升号 普洱茶 普洱 生茶饼 老班章纯料",
    "detail": "//item.jd.com/28514326581.html",
    "img": "//img12.360buyimg.com/jdcms/s150x150_jfs/t21352/1/1763453345/281252/e1002d54/5b35a629N0b54c332.jpg!q90!cc_170x170.webp",
    "price": "￥6199.00"
  },
  {
    "title": "汽车头枕护颈枕靠枕颈枕一对车用枕头车枕车载车内用品座椅记忆棉 单个装 小号黑",
    "detail": "//item.jd.com/46068632314.html",
    "img": "//img14.360buyimg.com/jdcms/s150x150_jfs/t1/31249/31/14541/178579/5cbe8ea9Ef15b8435/66d4d9c5ec064397.jpg!q90!cc_170x170.webp",
    "price": "￥36.00"
  },
  {
    "title": "尤妮佳（Unicharm） 舒蔻1/2型化妆棉 40片（日本原装进口）",
    "detail": "//item.jd.com/2971313.html",
    "img": "//img12.360buyimg.com/jdcms/s150x150_jfs/t1/8723/24/1587/33497/5bd1666fEf18fb61f/0f11e2775a946108.jpg!q90!cc_170x170.webp",
    "price": "￥28.80"
  },
  {
    "title": "飞科(FLYCO)电吹风机家用FH6232大功率吹风筒 2000W",
    "detail": "//item.jd.com/1151846.html",
    "img": "//img11.360buyimg.com/jdcms/s150x150_jfs/t1/28334/26/1512/78906/5c12fe2eEeff48a40/140c0684b146b9e1.jpg!q90!cc_170x170.webp",
    "price": "￥55.00"
  },
  {
    "title": "JIALAIBAO嘉莱宝一体机电脑超薄台式家用办公游戏整机 【热卖】A1/18.5英寸/I3/4G/120G",
    "detail": "//item.jd.com/1677430750.html",
    "img": "//img11.360buyimg.com/jdcms/s150x150_jfs/t29203/101/1289979379/383325/200c5cc/5ce64489N0a2cc2d3.jpg!q90!cc_170x170.webp",
    "price": "￥1498.00"
  },
  {
    "title": "米家 （MIJIA ）小米声波电动牙刷成人充电式磁悬浮声波震动马达 可替换刷头 智能电动牙刷",
    "detail": "//item.jd.com/4477785.html",
    "img": "//img14.360buyimg.com/jdcms/s150x150_jfs/t24346/83/288374923/42501/2fa147f8/5b2b58e5N3ac387ee.jpg!q90!cc_170x170.webp",
    "price": "￥199.00"
  },
  {
    "title": "圣罗兰（YSL）莹亮纯魅唇膏12#",
    "detail": "//item.jd.com/3760446.html",
    "img": "//img13.360buyimg.com/jdcms/s150x150_jfs/t5752/134/8869787029/133064/ae12ebe8/59800d5fNde1e51b3.jpg!q90!cc_170x170.webp",
    "price": "￥308.00"
  },
  {
    "title": "百刻 RJ45 超五类水晶头 工程级非屏蔽 /8芯（100个/包）",
    "detail": "//item.jd.com/100001994913.html",
    "img": "//img11.360buyimg.com/jdcms/s150x150_jfs/t1/10927/2/8301/239137/5c344d9fE10225702/524b2614d1659a49.jpg!q90!cc_170x170.webp",
    "price": "￥35.00"
  },
  {
    "detail": "https://ccc-x.jd.com/dsp/nc?ext=aHR0cHM6Ly9tYWxsLmpkLmNvbS9pbmRleC03ODQ4OTYuaHRtbA&log=U6Y887agX-d6Up0vvaruX_BqJdEaOX7sqHrL4GikW1DB3KQmT9U1QA7MJl6ZVfGnsoj9JFt_-MHNJCyKWb_ekSvcCgRGX2NTamAATqjAoRmR7G_FRnrx3WJEqTBQL6iBumCVOoVn3HJ7Qe-9Ozdr9LyVA9S3iLc3Rl4Bo6UfeSdBZK169sjF0wQtl97qJDSDWBsb87nVCIOQA3EQJ4hz0amHMNcQjJ32MlnS6AJM3sRPf_ISLv9FNc3HFLQP4k9nuV8DgmLLwABeC5Uet4sfOYEbHkopwIjXpco7cAfAF29y-M3XU1__qLyjL6h_x-gOiDKYSfhOseZCVA6uYFvVl-0s9ctDxi7O4Y2a_pbrUbZHNbaxvyCNj0A90AG6akCr1VHoPIBppZQBu_oDHM5bF7AMahoNZpTV9qBDmBOjFgNGSNMsqXx5emgsUi-MEZG9JXgPn0-CXAQnPL9SXd_FN6qAW66huTLEANfqehr2O48O3hl0G_6cf0_HW8-NI-o05oUuB6z4a4M47pYuv8THkA&v=404",
    "img": "//img1.360buyimg.com/pop/s230x306_jfs/t1/10387/33/15303/21309/5c90c3d9Ede8670de/d36d67dbe1dc375d.jpg!q90!cc_230x306",
    "price": "￥"
  },
  {
    "title": "湖北伦晚脐橙 新鲜橙子京东生鲜 精品小果5斤装（18个左右）",
    "detail": "//item.jd.com/44094050196.html",
    "img": "//img14.360buyimg.com/jdcms/s150x150_jfs/t1/42097/30/353/124096/5cc19fbeE0b554ef9/dda0b60f1dffb6f9.jpg!q90!cc_170x170.webp",
    "price": "￥38.00"
  },
  {
    "title": "禄凯防泼水双肩包包女2019春季旅行包校园书包潮流背包韩版 黑色",
    "detail": "//item.jd.com/43219575829.html",
    "img": "//img14.360buyimg.com/jdcms/s150x150_jfs/t28951/39/1651124856/162926/ab793fa/5ce60001N3647ed3b.jpg!q90!cc_170x170.webp",
    "price": "￥29.90"
  },
  {
    "title": "ColorTouch 多媒体教学一体机会议触摸屏幼儿园电视电脑电子白板显示器触控查询一体机壁挂广告机 55英寸触控一体机 酷睿I3/4G/120G固态(店长推荐）",
    "detail": "//item.jd.com/29308657374.html",
    "img": "//img12.360buyimg.com/jdcms/s150x150_jfs/t1/54642/6/571/254259/5ce22157E0c9db559/4a24074f8c96701c.jpg!q90!cc_170x170.webp",
    "price": "￥4699.00"
  },
  {
    "title": "ℍℍℍ【6.18特惠】电表箱装饰画配电箱现代简约挂画 客厅遮挡箱免打孔推拉 空谷幽兰 液压式 30*40容纳【20*30】",
    "detail": "//item.jd.com/45663205575.html",
    "img": "//img14.360buyimg.com/jdcms/s150x150_jfs/t1/21725/27/4765/91397/5c3563b4Ec208e515/73f7993efead6af4.jpg!q90!cc_170x170.webp",
    "price": "￥139.00"
  },
  {
    "title": "诺斯清 生理性海水鼻腔喷雾 生理盐水鼻炎喷剂 海盐水洗鼻器 50ml高渗儿童装*1",
    "detail": "//item.jd.com/15226980605.html",
    "img": "//img11.360buyimg.com/jdcms/s150x150_jfs/t20578/45/2643064298/349434/c3e7da28/5b5fd570N253b5fbc.png!q90!cc_170x170.webp",
    "price": "￥198.00"
  },
  {
    "title": "【工厂直销 品质好货限时6.8元秒拼包邮】2019新款日韩小鹿水桶包女包小挎包简约休闲单肩斜挎包小包 红色【T035小鹿】水桶包",
    "detail": "//item.jd.com/35241411071.html",
    "img": "//img13.360buyimg.com/jdcms/s150x150_jfs/t29428/168/1615363028/913112/b125497f/5ce62fbdN4f1a151b.png!q90!cc_170x170.webp",
    "price": "￥19.80"
  },
  {
    "title": "康奈男鞋 2019年夏季男士新款休闲鞋韩版圆头休闲运动鞋百搭镂空男鞋 18293042 红色 40",
    "detail": "//item.jd.com/42283444596.html",
    "img": "//img14.360buyimg.com/jdcms/s150x150_jfs/t1/11968/13/9291/120449/5c762461E76c08038/3a17cfd5bb1d4152.jpg!q90!cc_170x170.webp",
    "price": "￥219.00"
  },
  {
    "title": "秃秀 针织衫女2019夏季新款v领针织衫女修身弹力短款打底衫纯色短袖锁骨上衣 黑色 S",
    "detail": "//item.jd.com/43300810217.html",
    "img": "//img14.360buyimg.com/jdcms/s150x150_jfs/t1/20779/2/11010/129156/5c8a1fd8E4a3eb0eb/07955fd6c29d3f79.jpg!q90!cc_170x170.webp",
    "price": "￥98.00"
  },
  {
    "title": "诺泰（Nuotai） 眼部按摩器护眼仪近视力眼保仪眼睛按摩仪眼镜热敷眼罩舒缓眼疲劳 无线升级款",
    "detail": "//item.jd.com/10093229723.html",
    "img": "//img11.360buyimg.com/jdcms/s150x150_jfs/t1/64777/4/292/163698/5ce888ceE229c9ace/d7eaf39612d11451.jpg!q90!cc_170x170.webp",
    "price": "￥399.00369.00"
  },
  {
    "title": "秃秀 针织衫女2019夏季新款女短款短袖针织衫韩版百搭收腰显瘦短装上衣 白色 S",
    "detail": "//item.jd.com/43299455321.html",
    "img": "//img14.360buyimg.com/jdcms/s150x150_jfs/t1/22654/2/10724/135463/5c8a1c51Ea1444d69/c87e559e3586068f.jpg!q90!cc_170x170.webp",
    "price": "￥88.00"
  },
  {
    "title": "南极人（nanjiren）全自动足浴盆深桶电动按摩加热洗脚盆 家用恒温足疗器泡脚机 白色豪华滚轮版",
    "detail": "//item.jd.com/34437682243.html",
    "img": "//img13.360buyimg.com/jdcms/s150x150_jfs/t1/83882/31/51/283124/5cdfdea7E37753393/2b3d4eff11b4e281.jpg!q90!cc_170x170.webp",
    "price": "￥328.00"
  },
  {
    "img": "//img13.360buyimg.com/uba/s230x305_jfs/t1/318/22/16219/113237/5be03bc0E4ca6e404/768e5389ee544334.png!q90",
    "price": "￥"
  },
  {
    "title": "玉兰油OLAY护肤套装水感透白光塑精华露护肤品礼盒(光感小白瓶精华液30ml+面膜水100ml) 补水保湿 美白精华露",
    "detail": "//item.jd.com/100002540925.html",
    "img": "//img11.360buyimg.com/jdcms/s150x150_jfs/t1/63712/12/251/357668/5ce6d635E30da8735/3302e8fd431ae70c.jpg!q90!cc_170x170.webp",
    "price": "￥239.00214.50"
  },
  {
    "title": "南京同仁堂生物红豆薏米茶芡实赤小豆薏仁茶苦荞大麦茶叶花茶组合男女30小包 单袋 150g",
    "detail": "//item.jd.com/41278545838.html",
    "img": "//img14.360buyimg.com/jdcms/s150x150_jfs/t1/41010/8/3345/159028/5cce64a8Ee33f1c35/04a6d96d965a6d24.jpg!q90!cc_170x170.webp",
    "price": "￥49.90"
  },
  {
    "title": "【工厂直销 品质好货】2019新款迷你小包包韩版时尚印花小背包单肩斜挎包手提双肩少女包 【T246】酷酷女孩",
    "detail": "//item.jd.com/35175616353.html",
    "img": "//img13.360buyimg.com/jdcms/s150x150_jfs/t1/5152/39/11786/512878/5bd059c9E19a7c2a0/e3978db671f8d090.jpg!q90!cc_170x170.webp",
    "price": "￥39.90"
  },
  {
    "title": "卓朗（zoomland）电水壶 便携式烧水壶 可折叠电热水壶出差旅行迷你开水小容量壶食品级硅胶 经典保温款",
    "detail": "//item.jd.com/40045921307.html",
    "img": "//img14.360buyimg.com/jdcms/s150x150_jfs/t1/43526/35/4721/132477/5ce2113aE88e59197/3321169ecb215af5.jpg!q90!cc_170x170.webp",
    "price": "￥189.00159.00"
  },
  {
    "title": "尤思纳 镜面粘胶挂钩墙壁免钉挂勾挂架 厨房浴室门后壁挂无痕粘钩 10个装 镜面粘钩",
    "detail": "//item.jd.com/44733778060.html",
    "img": "//img14.360buyimg.com/jdcms/s150x150_jfs/t1/28330/31/14168/35105/5ca6170bE438034ef/6a4da0e44c368501.jpg!q90!cc_170x170.webp",
    "price": "￥19.90"
  },
  {
    "detail": "https://ccc-x.jd.com/dsp/nc?ext=aHR0cHM6Ly9tYWxsLmpkLmNvbS9pbmRleC02MDI4MC5odG1s&log=-9fgp-weCP__IXiW8jL5l7my1fY1bW7mZf1EM6DDMJD5AxL1OciAdWJSBNy2kvnUzhjMirpFzs46IJhsMTKuckJMRccUJkEWCe5OZ8zoIJf4qfB3xys2mihKBzPKZay99mhMPBKL5W_7x6KmlZBw76smQySO96BlYLSsx-y-8FntMLF_PWODuedmKmWC2F3zUEI4_0p9ZiIsZGoD6cyh8nXpAGf1JzRn08Jmm0EdoDpFL5SDn4t0teZ2RBMhw72B1ZxKsxFlLtkxzdYgLF1OFTJiCiVQ2AwvhcJUlGdkyKsaWXWmI5QmRqm9SuvzPyEHe1TBWUYwYAWYayOnkQEIzZzMPLSYQL6kEl5_55roeIiQzyUKMedvS781cVT0Ajz0IqwCRO3mJgyMwX2VLxL4uPgYbKVIEORabxVMDYrtW5cQiuOsPcBSPZohud1iQym_tZDUL9izpDzN7Pvqg5lgBqKdZX8AGgw1u3BvMXMSpi72zmpAaFOoSgOyZKawVtLNIfL4hEwd-n2UEDRzxpTn4A&v=404",
    "img": "//img1.360buyimg.com/pop/s230x306_jfs/t1/78909/14/10/23117/5cd27c54E63648f48/116ff28c3b6b5a80.jpg!q90!cc_230x306",
    "price": "￥"
  },
  {
    "title": "普诗米（PUSHIMI）汽车腰靠办公室座椅护腰垫减压车用靠垫透气腰部支撑靠背垫腰间盘突出腰靠四季通用 黑色-基础版",
    "detail": "//item.jd.com/28619643624.html",
    "img": "//img12.360buyimg.com/jdcms/s150x150_jfs/t1/55186/23/613/476095/5ce41cdbEe7da0209/c0874f040a789d3a.jpg!q90!cc_170x170.webp",
    "price": "￥159.00149.00"
  },
  {
    "title": "奥克斯（AUX） FS1613  电风扇/空气循环/落地扇/家用静音风扇/五叶大风量风扇",
    "detail": "//item.jd.com/100003536802.html",
    "img": "//img11.360buyimg.com/jdcms/s150x150_jfs/t1/22688/3/8599/115824/5c761fc9E64603cea/df5afd1e54e231b1.jpg!q90!cc_170x170.webp",
    "price": "￥99.90"
  },
  {
    "title": "格兰仕 微波炉 光波炉 微烤箱一体机 23L800W 家用智能APP操控平板 HC-83203FB 黑色",
    "detail": "//item.jd.com/17299096214.html",
    "img": "//img11.360buyimg.com/jdcms/s150x150_jfs/t1/48721/32/796/163722/5ce89c93Eb94bb978/1d030d3e4d49a2b3.jpg!q90!cc_170x170.webp",
    "price": "￥639.00"
  },
  {
    "title": "游逺銀緣s925银项链 女 锁骨链 时尚饰品 韩版定制 简约设计天鹅投影100种语言520吊坠 白金色天鹅投影项链",
    "detail": "//item.jd.com/44488026652.html",
    "img": "//img14.360buyimg.com/jdcms/s150x150_jfs/t1/28251/20/13690/147663/5ca1cd62E9af895fe/fac8954b83f4403e.jpg!q90!cc_170x170.webp",
    "price": "￥158.00"
  },
  {
    "title": "面包蛋糕500克装 营养早餐粗粮面包500g整箱红枣沙蛋糕下午茶点心 蛋糕500克整件实惠装",
    "detail": "//item.jd.com/38386795898.html",
    "img": "//img13.360buyimg.com/jdcms/s150x150_jfs/t1/4953/26/12469/207152/5bd3fb89Ec4bacf68/2a7238c91b1c69e3.png!q90!cc_170x170.webp",
    "price": "￥65.60"
  },
  {
    "title": "尤思纳 肥皂盒吸盘壁挂沥水免打孔双层浴室卫生间便携香皂置物架 一个装四色随机发",
    "detail": "//item.jd.com/44555618147.html",
    "img": "//img14.360buyimg.com/jdcms/s150x150_jfs/t1/33250/28/1029/73726/5ca31a49E3d803877/75055d9f9943dfe5.jpg!q90!cc_170x170.webp",
    "price": "￥14.90"
  },
  {
    "title": "【工厂直销、广州好货】女包2019夏季新款韩版流苏小圆包简约百搭单肩包时尚复古斜挎包包 粉色T446M",
    "detail": "//item.jd.com/45933531169.html",
    "img": "//img14.360buyimg.com/jdcms/s150x150_jfs/t29404/101/1587854454/542912/34180c84/5ce62f75Nad1edda4.png!q90!cc_170x170.webp",
    "price": "￥39.80"
  },
  {
    "title": "九阳（Joyoung）JYW-T03 1机4芯套装净水器水龙头台式净水机家用厨房过滤器自来水可视化可清洗滤芯",
    "detail": "//item.jd.com/4930711.html",
    "img": "//img14.360buyimg.com/jdcms/s150x150_jfs/t27088/339/1797912342/172051/f2fa77fa/5bee7f2fNe06023a6.jpg!q90!cc_170x170.webp",
    "price": "￥108.00"
  },
  {
    "title": "欧莱雅（LOREAL）复颜抗皱紧致护肤化妆品套装礼盒（柔肤130ml+乳液110ml+乳液50ml+柔肤水65ml）",
    "detail": "//item.jd.com/4806709.html",
    "img": "//img14.360buyimg.com/jdcms/s150x150_jfs/t1/14379/8/6142/281112/5c4976a0E08d8961a/39bb169fc2a909aa.jpg!q90!cc_170x170.webp",
    "price": "￥359.00"
  },
  {
    "title": "小吉（MINIJ）121L复古迷你单门小冰箱 小型冷藏冷冻保鲜宿舍家用节能静音 青春版 奶酪白BC-121CM",
    "detail": "//item.jd.com/27038618414.html",
    "img": "//img12.360buyimg.com/jdcms/s150x150_jfs/t1/33254/17/2082/16503/5cac6632E38b79927/254de088f93a3bbf.jpg!q90!cc_170x170.webp",
    "price": "￥1199.00"
  },
  {
    "title": "小米（MI）路由器4A 1200M双频无线速率 四天线穿墙 APP远程控制 防蹭网 双频合一 稳定高速 家用路由器",
    "detail": "//item.jd.com/100003983432.html",
    "img": "//img11.360buyimg.com/jdcms/s150x150_jfs/t1/39182/20/6585/107085/5cd16640E3817bf1e/e7a4b0901f4a75d9.jpg!q90!cc_170x170.webp",
    "price": "￥99.00"
  },
  {
    "price": "￥"
  },
  {
    "title": "格兰仕微波炉光波炉 微烤箱一体机 23升800W 家用 平板烧烤 智能操控 HC-83203FB ",
    "detail": "//item.jd.com/41453118487.html",
    "img": "//img14.360buyimg.com/jdcms/s150x150_jfs/t30760/269/1467041751/136635/d31080bb/5ce21426N5a83bd57.jpg!q90!cc_170x170.webp",
    "price": "￥639.00"
  },
  {
    "title": "飞利浦(PHILIPS) 电动牙刷 成人声波震动(自带刷头*1)  HX6511（新老包装随机发货）",
    "detail": "//item.jd.com/361132.html",
    "img": "//img13.360buyimg.com/jdcms/s150x150_jfs/t1/3699/5/15480/118525/5bdf0892Ee3a11239/79acdce4831ade9d.jpg!q90!cc_170x170.webp",
    "price": "￥299.00"
  },
  {
    "title": "康奈男鞋新款男士真皮商务休闲鞋轻便圆头舒适套脚皮鞋懒人套脚男鞋1177718 黑色 43",
    "detail": "//item.jd.com/14111585140.html",
    "img": "//img11.360buyimg.com/jdcms/s150x150_jfs/t8575/186/882466182/229018/ad53d56a/59b09053Nacac007e.jpg!q90!cc_170x170.webp",
    "price": "￥359.00"
  },
  {
    "title": "秃秀 针织衫女2019夏季新款短袖露肩打底针织衫女修身套头圆领短款上衣 黑色 均码",
    "detail": "//item.jd.com/43299451264.html",
    "img": "//img14.360buyimg.com/jdcms/s150x150_jfs/t1/30687/3/6051/166454/5c8a1c47Efd4b3c25/65f9464bc6ac642f.jpg!q90!cc_170x170.webp",
    "price": "￥98.00"
  },
  {
    "title": "Smeal胖胖瓶代餐粉减肥饱腹奶昔营养餐食品膳食纤维粉蛋白能量低糖粉低脂 6种口味组合装 炭烧拿铁咖啡口味6瓶",
    "detail": "//item.jd.com/47016239904.html",
    "img": "//img14.360buyimg.com/jdcms/s150x150_jfs/t1/81462/31/247/119160/5ce6c465E2f935134/fc31742ccd50f6d5.jpg!q90!cc_170x170.webp",
    "price": "￥239.00"
  },
  {
    "title": "绝地求生时尚潮流同款吃鸡三级包电脑背包学生男士双肩书包 活动颜色随机发",
    "detail": "//item.jd.com/43252658884.html",
    "img": "//img14.360buyimg.com/jdcms/s150x150_jfs/t1/32162/14/6380/159355/5c8dfc3dEe992f6d4/523d918c245d58d2.jpg!q90!cc_170x170.webp",
    "price": "￥59.00"
  },
  {
    "title": "兰雀（Lacheer） 德国原装进口全脂高钙3.6g/100ml蛋白质纯牛奶200ml*24盒整箱装",
    "detail": "//item.jd.com/100002244670.html",
    "img": "//img11.360buyimg.com/jdcms/s150x150_jfs/t1/33790/14/80/245296/5c9c3d46Ed5280d27/94e8325a6312a77d.jpg!q90!cc_170x170.webp",
    "price": "￥69.0065.00"
  },
  {
    "title": "金龙鱼 食用油 葵花籽清香型 食用植物调和油5L",
    "detail": "//item.jd.com/918498.html",
    "img": "//img12.360buyimg.com/jdcms/s150x150_jfs/t1/15012/24/12552/44463/5c987236Ef63f20a5/6d2f83113b843c9c.jpg!q90!cc_170x170.webp",
    "price": "￥39.80"
  },
  {
    "title": "TOPTIER木纤维 实木菜板 砧板 整木案板 家用不易发霉 分类切菜板 刀板 面板大号 切水果板 中号轻薄款（37*27.5cm）带水槽+防滑硅胶",
    "detail": "//item.jd.com/45035098116.html",
    "img": "//img14.360buyimg.com/jdcms/s150x150_jfs/t11446/97/2910836863/684598/6c89cf1/5cdd2e0aN0d0205c5.png!q90!cc_170x170.webp",
    "price": "￥189.00"
  },
  {
    "title": "东苙雅朗 吸顶灯LED卧室灯具客厅灯饰书房阳台灯薄款现代简约圆形灯 全白 【12W直径20cm】白光",
    "detail": "//item.jd.com/44733679742.html",
    "img": "//img14.360buyimg.com/jdcms/s150x150_jfs/t1/25041/34/14839/37128/5caae701E1feaaef4/2280b0090f178c00.jpg!q90!cc_170x170.webp",
    "price": "￥49.00"
  },
  {
    "title": "三只松鼠 坚果炒货 孕妇坚果每日坚果干果零食奶油味夏威夷果160g/袋",
    "detail": "//item.jd.com/6271279.html",
    "img": "//img30.360buyimg.com/jdcms/s150x150_jfs/t30346/276/1611512976/236075/82438bcd/5ce65254N104bbf60.jpg!q90!cc_170x170.webp",
    "price": "￥29.90"
  },
  {
    "detail": "https://ccc-x.jd.com/dsp/nc?ext=aHR0cHM6Ly9zYWxlLmpkLmNvbS9tYWxsL3ZtRW81YWdueEwuaHRtbA&log=RdRE8lmm__N6CINNAE9ZtMtYHwcGF3dyuSjnW729l4BCP9Vr82bUQ2qbobDtlHwxiMU68ZFLWtB_zuCpZpvqDb4fqXhzhL8MBZfCZ5i0gLuluUDLWDiqqp-vstNGkLEp_FM11cZfKKkI6N1Xff4f3mCH1Q0KeWD23LWtfqp8ZRgx2tKJxnmp43LRbKxfk4ZLt7G7YHDy_r9-GG4ALAja6_ohlCuvdtTXLJLV1gV9oGaU_JrKM6ISlCM_AgsCeoRSeiYHJDJ6-873Q3eCflpJhgEcqUp-qzEkao2V9KcuTYkGd12Ld6r4J6hFNDLIXHAvyuhx7jg7RtHF7QdcvtzZ2rx_WOgXzlDFIBPGDp4oCmrg5L4S6xt9r1devGfvnYJHmKpAO_xCsX-wsP-nKbq3LIKfw7PZqcklRxuYPofwhiWgbj-ZGOFKYA2pE2AEuxAUwi-qDSwYyp-DSdXdol-2udVNF7QIdkGD4qMC0c15VQUOSj6iIWRjOKWmv9UJGTzzW7RkYBAlf6U_0wxRmkHsXl-boeMTYLnt5gE6dq-Jico&v=404",
    "img": "//img1.360buyimg.com/pop/s230x306_jfs/t1/14728/31/15142/20127/5cae03faE9de08cd9/86e99ebccd0b35ad.png!q90!cc_230x306",
    "price": "￥"
  },
  {
    "title": "光幻 后现代复古led美式简北欧式吊灯大客厅卧室灯具创意个性新中式田园楼梯饭餐厅艺术灯饰 灯头向上款6头(直径76CM) 配光源-尖泡5W暖光",
    "detail": "//item.jd.com/34342995568.html",
    "img": "//img13.360buyimg.com/jdcms/s150x150_jfs/t1/31700/36/11770/252059/5cb5ec91E3e5cb154/63c9cfc2b45f1995.jpg!q90!cc_170x170.webp",
    "price": "￥603.00"
  },
  {
    "title": "酣客 热活53度大曲酱香型白酒茅台镇粮食酒100ml",
    "detail": "//item.jd.com/10075774012.html",
    "img": "//img11.360buyimg.com/jdcms/s150x150_jfs/t17569/306/1739750935/63963/3f342bd8/5ad5515bN65ba4102.jpg!q90!cc_170x170.webp",
    "price": "￥19.90"
  },
  {
    "title": "美的（Midea）FS40-13ER 五叶遥控落地扇/电风扇",
    "detail": "//item.jd.com/1069555.html",
    "img": "//img11.360buyimg.com/jdcms/s150x150_jfs/t1/43038/24/4950/128865/5ce79865E7e5a9629/73ac8375d3d17034.jpg!q90!cc_170x170.webp",
    "price": "￥209.00"
  },
  {
    "title": "筷子家用酒店高档餐具合金筷子10只装日式快子家庭防滑非实木筷子 一双装竹节筷【体验款】",
    "detail": "//item.jd.com/45182380040.html",
    "img": "//img14.360buyimg.com/jdcms/s150x150_jfs/t1/36861/13/1074/90115/5caeffdeEd5d93121/983607d545b82fb0.jpg!q90!cc_170x170.webp",
    "price": "￥12.90"
  },
  {
    "title": "欧莱丹天然红绿玛瑙项链女转运珠吊坠锁骨链毛衣链项链绳闺蜜学生韩版简约时尚饰品 生日礼物 OB-85猫眼石转运珠",
    "detail": "//item.jd.com/44310691521.html",
    "img": "//img14.360buyimg.com/jdcms/s150x150_jfs/t1/22587/38/13173/171042/5c9df2d1Ec1aaadfa/5f1b0891f235a0cc.jpg!q90!cc_170x170.webp",
    "price": "￥49.00"
  },
  {
    "img": "//img30.360buyimg.com/mobilecms/s80x80_jfs/t10714/315/2735989748/178526/a2d71810/5cd64e72N46979ef3.jpg!q90!cc_80x80",
    "price": "￥8190.00520.00"
  },
  {
    "title": "㏗【新品特惠】黑色领带男韩版潮流懒人5CM学生窄拉链式衬衫学院风正装女ins细小 深蓝色 502深蓝色拉链",
    "detail": "//item.jd.com/44217430639.html",
    "img": "//img14.360buyimg.com/jdcms/s150x150_jfs/t1/25268/17/12813/106642/5c9c6191E46632ae4/a66b350a314e37b5.jpg!q90!cc_170x170.webp",
    "price": "￥49.00"
  },
  {
    "title": "仿小狮子手链情侣手链女学生情侣手环脚链女闺蜜抖音网红手链貔貅巴斯光年手链正品官网火影篮球手环手绳男 情侣黑白 一对",
    "detail": "//item.jd.com/45650013208.html",
    "img": "//img14.360buyimg.com/jdcms/s150x150_jfs/t1/73151/26/348/209931/5ce8d91eEd9369a2e/3998f7883f7bb146.jpg!q90!cc_170x170.webp",
    "price": "￥19.90"
  },
  {
    "title": "飞科(FLYCO)电动剃须刀三刀头刮胡刀胡须刀剃胡刀FS362",
    "detail": "//item.jd.com/1019198.html",
    "img": "//img11.360buyimg.com/jdcms/s150x150_jfs/t21157/63/1935441224/166178/1d4e810f/5b7e6185N99a849ad.jpg!q90!cc_170x170.webp",
    "price": "￥59.90"
  },
  {
    "title": "蜗家 厨房水槽置物架多功能收纳架可伸缩双层台下收纳架层架 白色z652",
    "detail": "//item.jd.com/24368380214.html",
    "img": "//img12.360buyimg.com/jdcms/s150x150_jfs/t16141/221/1615592834/472907/a954b7e2/5a5729baN5b94cb8f.jpg!q90!cc_170x170.webp",
    "price": "￥39.90"
  },
  {
    "title": "诺斯清 生理性海水鼻腔喷雾 生理盐水洗鼻喷鼻器鼻腔护理洗鼻水 海盐水洗鼻器 80ml成人*4+酒精棉/盒*4",
    "detail": "//item.jd.com/12517570769.html",
    "img": "//img11.360buyimg.com/jdcms/s150x150_jfs/t20473/166/2625385238/457832/ced4352/5b5fd52dN5665c2c4.png!q90!cc_170x170.webp",
    "price": "￥248.00"
  },
  {
    "title": "小米（MI）小米净水器 滤芯 PP棉",
    "detail": "//item.jd.com/3007110.html",
    "img": "//img13.360buyimg.com/jdcms/s150x150_jfs/t4441/119/604103641/26910/8bbc7d00/58d1f178Nd55fb081.jpg!q90!cc_170x170.webp",
    "price": "￥69.00"
  },
  {
    "title": "康奈男鞋 男士皮鞋商务正装真皮舒适圆头套脚男鞋黑色正装皮鞋1167846 黑色 38",
    "detail": "//item.jd.com/10937331206.html",
    "img": "//img11.360buyimg.com/jdcms/s150x150_jfs/t8806/104/2009070991/253237/7cc7360d/59c204b4N323c3060.jpg!q90!cc_170x170.webp",
    "price": "￥239.00"
  },
  {
    "title": "玉兰油OLAY面霜新生塑颜金纯系列明星大红瓶面霜50g（水润弹嫩 细致毛孔 紧致提拉 新老包装随机发送）",
    "detail": "//item.jd.com/819172.html",
    "img": "//img11.360buyimg.com/jdcms/s150x150_jfs/t1/84581/10/647/370472/5ce6d6d7E4657cdad/0460d195d863374a.jpg!q90!cc_170x170.webp",
    "price": "￥219.00"
  },
  {
    "title": "兰雀（Lacheer） 德国原装进口脱脂高钙3.6g/100ml蛋白质纯牛奶200ml*24整箱装",
    "detail": "//item.jd.com/100002244668.html",
    "img": "//img11.360buyimg.com/jdcms/s150x150_jfs/t1/25081/13/12845/237213/5c9c3fb0E27966e3f/21d8bd31f72bd8a5.jpg!q90!cc_170x170.webp",
    "price": "￥65.00"
  },
  {
    "title": "南极人 男士内裤男平角裤纯色95%精梳棉质中腰男式四角内裤u凸短裤头4条礼盒装NHT9999 混色4条XL",
    "detail": "//item.jd.com/1672700.html",
    "img": "//img11.360buyimg.com/jdcms/s150x150_jfs/t1/21051/8/2362/249945/5c1c5c1bE33b5149e/4ac2f02e1ec55088.jpg!q90!cc_170x170.webp",
    "price": "￥49.0046.80"
  },
  {
    "title": "雷克沙（Lexar）128GB TF（MicroSD）存储卡 C10 U3 V30 A2 读100MB/s 写90MB/s 高速稳定不掉速（667x）",
    "detail": "//item.jd.com/100005623326.html",
    "img": "//img11.360buyimg.com/jdcms/s150x150_jfs/t28093/346/1210778277/246478/f55c51ec/5cda21f5Nc48068c8.jpg!q90!cc_170x170.webp",
    "price": "￥109.90"
  },
  {
    "detail": "https://ccc-x.jd.com/dsp/nc?ext=aHR0cHM6Ly9jaGFubmVsLW0uamQuY29tL3BjL3BzcC82MjE4NDU1&log=Yxrwg75jwt0hyGYAI2gnxr9aq92IcMJwSfiPm05tPU_oJQDskGbQDuS1hh_ZBinNcbWQUsPtdgxuYfxeEZER2xSaXmXhiWbt_M8phxvEzdQzysxiG_taEpkOuJqAkyHZ-hLUF_ZmnNtyD_7EYI0iYtD5rTHQUECmfkuLv_4Sn8XeWETQSw9wU-iJauRiWnHGvBzZUHGWCXZZo_CvtdTU0Sezd4Bs5FnIf7JkA71T5KPLAKss9z4R_M2ToK_efDWRX1BO5GtgFb7wGUfGb3f7bTbDY5E9y4KvTe8vSzr2o-ZkQJGdZY089ly3LEuzTTk2q5MuYzPRx1lBIGgnUogy4ydj2RfB8A36DOULpZdFWCdfRCS6eSgA4C1iYEP6rSbpCI_PdGAM3xgKXh_EjQifvR3adIeNWk7zmsrKKb2K3XM&v=404",
    "img": "//img30.360buyimg.com/da/s230x306_jfs/t1/29755/18/2516/46951/5c1cbb8bEec692649/f73868ccc72e072d.jpg!q90!cc_230x306",
    "price": "￥"
  },
  {
    "title": "TP-LINK TL-WDR5620 1200M 5G双频智能无线路由器 四天线智能wifi 稳定穿墙高速家用路由器",
    "detail": "//item.jd.com/3668211.html",
    "img": "//img13.360buyimg.com/jdcms/s150x150_jfs/t1/49379/4/94/144949/5cd241b5Ee2262304/d59bd88f0d960c5d.jpg!q90!cc_170x170.webp",
    "price": "￥119.00"
  },
  {
    "title": "飞利浦(PHILIPS) 电动牙刷 成人声波震动(自带刷头*2) 智能净白 牙龈呵护 HX3226/41（新老包装随机发货）",
    "detail": "//item.jd.com/3244966.html",
    "img": "//img13.360buyimg.com/jdcms/s150x150_jfs/t1/17638/40/7796/272185/5c6f7913E7d5a030e/199eeb6ae0fd3dbc.jpg!q90!cc_170x170.webp",
    "price": "￥239.00"
  },
  {
    "title": "得力(deli)办公会议白板笔可擦易擦10支 7黑2蓝1红",
    "detail": "//item.jd.com/1558553.html",
    "img": "//img11.360buyimg.com/jdcms/s150x150_jfs/t10798/321/2929493651/383842/44ca27ca/5cdcc2b9Nbe131f06.jpg!q90!cc_170x170.webp",
    "price": "￥12.00"
  },
  {
    "title": "美的（Midea）M1-L213B 快捷微波炉 360°转盘加热 旋钮操控 精准控温 五档火力 21升",
    "detail": "//item.jd.com/1404743.html",
    "img": "//img11.360buyimg.com/jdcms/s150x150_jfs/t20503/186/2458533163/101960/71fcfe06/5b56ddcaNfa469fcd.jpg!q90!cc_170x170.webp",
    "price": "￥309.00"
  },
  {
    "title": "金龙鱼 食用油 非转基因 压榨 一级 纯正玉米油4L",
    "detail": "//item.jd.com/3303098.html",
    "img": "//img13.360buyimg.com/jdcms/s150x150_jfs/t26860/316/521538603/47554/d810fa89/5bb0432aNc236995a.jpg!q90!cc_170x170.webp",
    "price": "￥39.80"
  },
  {
    "title": "好奇(Huggies)铂金装纸尿裤大号L96+8片【9-14kg】产品升级 新老包装交替发货",
    "detail": "//item.jd.com/4483022.html",
    "img": "//img14.360buyimg.com/jdcms/s150x150_jfs/t28054/114/1377782130/121175/322416e2/5cde6530Na1fb858a.jpg!q90!cc_170x170.webp",
    "price": "￥218.00"
  },
  {
    "title": "三只松鼠坚果炒货零食特产每日坚果炭烧腰果90g/袋",
    "detail": "//item.jd.com/4803348.html",
    "img": "//img14.360buyimg.com/jdcms/s150x150_jfs/t24637/118/445396911/158520/c66ea294/5b70e116Nc67a9be4.jpg!q90!cc_170x170.webp",
    "price": "￥19.90"
  },
  {
    "title": "品居源 篷布苫布防水布防晒加厚甩货货车高栏遮阳户外老帆布防雨布 定制规格 下单前联系 G03054",
    "detail": "//item.jd.com/100005297730.html",
    "img": "//img11.360buyimg.com/jdcms/s150x150_jfs/t1/31871/16/15059/124848/5cc1641cE0d45e8a0/3cee3c9072cbeced.jpg!q90!cc_170x170.webp",
    "price": "￥10.00"
  },
  {
    "title": "【故宫联名限量版】曼诗丽故宫口红套装礼盒中国风开运红学生情人节女朋友礼物唇膏唇釉颐和园口红彩妆礼盒 红鸾心动口红礼盒（6支）",
    "detail": "//item.jd.com/43552897256.html",
    "img": "//img14.360buyimg.com/jdcms/s150x150_jfs/t1/32671/17/15514/480412/5cc2a21fE013053b8/87c59a5f4ac85849.jpg!q90!cc_170x170.webp",
    "price": "￥168.00"
  },
  {
    "title": "TCL TFS16D 电风扇/空气循环/落地扇/家用静音风扇/五叶大风量风扇定时机械",
    "detail": "//item.jd.com/6649212.html",
    "img": "//img30.360buyimg.com/jdcms/s150x150_jfs/t1/45735/11/260/93607/5cd3c660E40b302b3/b064e1665366db09.jpg!q90!cc_170x170.webp",
    "price": "￥99.00"
  },
  {
    "title": "罗技（Logitech）MK275 无线光电键鼠套装 无线鼠标无线键盘套装 三年质保",
    "detail": "//item.jd.com/2291748.html",
    "img": "//img12.360buyimg.com/jdcms/s150x150_jfs/t808/336/1217557627/99842/6b4b4dc1/5721bb8fNf82c9964.jpg!q90!cc_170x170.webp",
    "price": "￥109.00"
  },
  {
    "img": "//img12.360buyimg.com/mobilecms/s210x110_jfs/t18985/132/1813665920/511925/d105e341/5adad892N92a45e75.png!q90!cc_210x110",
    "price": "￥"
  },
  {
    "title": "都市丽人睡衣女夏季薄款情侣休闲简约家居服女甜美圆领短袖短裤棉质睡衣套装 可外穿 花灰 L",
    "detail": "//item.jd.com/25691141134.html",
    "img": "//img12.360buyimg.com/jdcms/s150x150_jfs/t1/44598/25/1253/174562/5ce67024E1779d2ef/7f87b08bba102769.jpg!q90!cc_170x170.webp",
    "price": "￥58.00"
  },
  {
    "title": "南极人拖鞋男室内外凉拖浴室洗澡灰色42-4319A91",
    "detail": "//item.jd.com/100002831380.html",
    "img": "//img11.360buyimg.com/jdcms/s150x150_jfs/t1/18025/30/6859/590985/5c63d559E91fa4ced/405ed83db6719c21.jpg!q90!cc_170x170.webp",
    "price": "￥18.0017.00"
  },
  {
    "title": "正宗德州扒鸡官方旗舰店非叫花鸡非道口烧鸡五香脱骨童子鸡400g",
    "detail": "//item.jd.com/15065257634.html",
    "img": "//img11.360buyimg.com/jdcms/s150x150_jfs/t1/43115/9/3795/187389/5cd000b2E8a5f1a98/e0ccbee438bada3d.png!q90!cc_170x170.webp",
    "price": "￥32.80"
  },
  {
    "title": "飞利浦（PHILIPS）男士电动剃须刀便携式剃胡刀胡须刀刮胡刀PQ182/16",
    "detail": "//item.jd.com/911093.html",
    "img": "//img12.360buyimg.com/jdcms/s150x150_jfs/t1/4697/5/13519/63602/5bd80c0bE463d5b6b/b627f2c2c04af37e.jpg!q90!cc_170x170.webp",
    "price": "￥89.00"
  },
  {
    "title": "厨房置物架多层落地卫生间浴室厕所洗漱台三角架收纳架子洗手间脸盆架 卡其【三层三角形】",
    "detail": "//item.jd.com/45029034307.html",
    "img": "//img14.360buyimg.com/jdcms/s150x150_jfs/t1/29262/10/14984/130015/5cac618cE4ee461eb/b99fb87f348eac8e.jpg!q90!cc_170x170.webp",
    "price": "￥10.00"
  },
  {
    "detail": "https://ccc-x.jd.com/dsp/nc?ext=aHR0cHM6Ly9jaGFubmVsLW0uamQuY29tL3BjL3BzcC8yODYwNTcy&log=t7VIsn-Q4qS4j9p6SH-Hv64EHmC-wuJ5XISWiJ5-WDcdr2LadW-U2S8i9_mrWIe5NoSazdkoZhjePefto6TjoQIkzePG7X_94p8HVdj-coBbuWiPbGEhd8o7X0HG6RWmdyfuDkCHHv7PVpYghnNPZFNmRQM46xAmeyXnk-2Re6XfdbJaRaQiYvwIAuCc_C3ovevftLtC5S-pwweyyLSDStpCOPA1yTj8WrjZSJW7dmNIhWJXgYZZ9MdRN43dAjV-ISTT_yqTzd-MH2_kWBJBv3qJmj35rAfBv9Tymni65BsNmxOVUnvSiuh2B810C0n1K2l-veIoamX2ij8YFqDOBOd8JzL31yrWeQsrEtsuypldyVGITMykTxWdT0BRKsmucNF5etIzKHDQGGCKT4__hLhEx1j4xJ-NMMZXH3Vl9N0&v=404",
    "img": "//img13.360buyimg.com/da/s230x306_jfs/t1/24832/17/2448/46637/5c1cbb96Ec79ce98a/f352cb57fce262e9.jpg!q90!cc_230x306",
    "price": "￥"
  },
  {
    "title": "康奈 凉鞋男 2019年夏季新款男士凉鞋真皮金属装饰沙滩鞋男休闲爸爸鞋软底凉拖鞋1829303 黑色 41",
    "detail": "//item.jd.com/43213149836.html",
    "img": "//img14.360buyimg.com/jdcms/s150x150_jfs/t1/34990/1/5948/216460/5cc17738E8392327d/cfd4a61c9d007357.jpg!q90!cc_170x170.webp",
    "price": "￥139.00"
  },
  {
    "title": "秃秀 针织衫女2019夏季新款女装时尚套头宽松妈妈装短袖t恤女薄款韩版蝙蝠袖短款修身针织女上衣 藏青色 M",
    "detail": "//item.jd.com/47637447312.html",
    "img": "//img14.360buyimg.com/jdcms/s150x150_jfs/t27967/144/1193976185/217693/e0deb5e3/5cd95e9fN5b527b1f.jpg!q90!cc_170x170.webp",
    "price": "￥128.00"
  },
  {
    "title": "TP-LINK TL-WN823N免驱版 300M USB无线网卡 笔记本台式机通用随身wifi接收器 智能安装",
    "detail": "//item.jd.com/100002554636.html",
    "img": "//img11.360buyimg.com/jdcms/s150x150_jfs/t1/22688/24/2349/98976/5c1c94cdE0f992302/df5afd1e54e231b1.jpg!q90!cc_170x170.webp",
    "price": "￥68.00"
  },
  {
    "title": "奔达利 澳洲精选谷饲西冷牛排 200g 进口谷饲原切",
    "detail": "//item.jd.com/100002702800.html",
    "img": "//img11.360buyimg.com/jdcms/s150x150_jfs/t1/7704/30/11355/243368/5c2c56d7E0fc512c6/51b5a2cfa8c05634.jpg!q90!cc_170x170.webp",
    "price": "￥44.90"
  },
  {
    "title": "美的（Midea）电饭煲电饭锅3L迷你电饭煲24小时预约微压蒸汽阀黄晶内胆家用电饭煲MB-WFS3018Q",
    "detail": "//item.jd.com/1367090.html",
    "img": "//img11.360buyimg.com/jdcms/s150x150_jfs/t1/6763/33/2122/103864/5bcfc76aE83a534a2/f7d36ed49f7fa780.jpg!q90!cc_170x170.webp",
    "price": "￥169.00"
  },
  {
    "title": "小米（MI）行李箱拉杆箱 男女万向轮旅行箱登机箱 20英寸 蓝色",
    "detail": "//item.jd.com/100004250116.html",
    "img": "//img11.360buyimg.com/jdcms/s150x150_jfs/t1/11035/40/13802/140827/5c9d8510E9b150637/8938f7c2a9abea9c.jpg!q90!cc_170x170.webp",
    "price": "￥299.00"
  },
  {
    "title": "华为 (HUAWEI) WS5200 增强版双千兆路由器 1200M双频wifi 无线家用穿墙 5G双频智能无线路由 高速路由 IPv6",
    "detail": "//item.jd.com/100002487148.html",
    "img": "//img11.360buyimg.com/jdcms/s150x150_jfs/t1/32957/30/1076/106713/5c457840E7f26d493/8a575f6e9c08eeed.jpg!q90!cc_170x170.webp",
    "price": "￥229.00"
  },
  {
    "title": "飞利浦(PHILIPS) 电动牙刷 成人声波震动牙刷(自带刷头*1) 机皇款 HX6730/02",
    "detail": "//item.jd.com/530150.html",
    "img": "//img20.360buyimg.com/jdcms/s150x150_jfs/t1/10948/19/1851/133787/5bdf0862E89470617/0be255fec4b97d5e.jpg!q90!cc_170x170.webp",
    "price": "￥399.00"
  },
  {
    "title": "得力(deli) 50只A4牛皮纸档案袋 175g侧宽4cm 标书合同文件资料袋 33474",
    "detail": "//item.jd.com/6020743.html",
    "img": "//img30.360buyimg.com/jdcms/s150x150_jfs/t19717/251/228992018/489284/51367082/5a654c11N277019ad.jpg!q90!cc_170x170.webp",
    "price": "￥35.00"
  },
  {
    "title": "12张眼镜布近视眼睛布清洁布擦手机屏幕镜头麂皮绒高档纯棉镜布送眼镜清洗液包邮 12张四色镜布送两瓶眼镜清洗液",
    "detail": "//item.jd.com/39938293904.html",
    "img": "//img13.360buyimg.com/jdcms/s150x150_jfs/t1/35827/37/4139/107802/5cbabc06E4f3da327/bc0b04546047fdfa.jpg!q90!cc_170x170.webp",
    "price": "￥13.80"
  },
  {
    "title": "高尔夫GOLF升级可折叠防水男女双肩包大容量14/15英寸学生电脑书包便携户外背包 深蓝色 防水可折叠2732（小包为折叠效果）",
    "detail": "//item.jd.com/12403637373.html",
    "img": "//img11.360buyimg.com/jdcms/s150x150_jfs/t20821/89/1850158146/249299/894cfc70/5b3b451bN64d5978a.jpg!q90!cc_170x170.webp",
    "price": "￥99.00"
  },
  {
    "img": "//img20.360buyimg.com/uba/s230x305_jfs/t1/9049/27/6176/145339/5be03bc1E37e0e8df/63ddd24e0e0ab152.png!q90",
    "price": "￥"
  },
  {
    "title": "帮宝适(Pampers)超薄干爽绿帮纸尿裤L164片(9-14kg)大码 尿不湿箱装",
    "detail": "//item.jd.com/695467.html",
    "img": "//img30.360buyimg.com/jdcms/s150x150_jfs/t1/650/10/3607/167286/5b98e4e3E315833a8/a1ff5ff0a87918aa.jpg!q90!cc_170x170.webp",
    "price": "￥229.00"
  },
  {
    "title": "三只松鼠坚果炒货零食特产每日坚果开心果100g/袋",
    "detail": "//item.jd.com/4803334.html",
    "img": "//img14.360buyimg.com/jdcms/s150x150_jfs/t30751/103/1579714062/171377/5119373d/5ce4bd8bN2c7242f3.jpg!q90!cc_170x170.webp",
    "price": "￥32.9029.80"
  },
  {
    "title": "迪奥（Dior）烈艳蓝金唇膏999 3.5g(口红 保湿滋润 显色持久 正红色)",
    "detail": "//item.jd.com/2349751.html",
    "img": "//img12.360buyimg.com/jdcms/s150x150_jfs/t18367/223/964971013/93476/3015a301/5ab47b2cNc5d19db6.jpg!q90!cc_170x170.webp",
    "price": "￥500.00"
  },
  {
    "title": "得力（deli）5005 A4/60页资料册/插袋文件册/活页文件夹 蓝色 单只装",
    "detail": "//item.jd.com/1851629.html",
    "img": "//img11.360buyimg.com/jdcms/s150x150_jfs/t16267/204/1880866566/129193/7fff92d1/5a6561b6Neac91764.jpg!q90!cc_170x170.webp",
    "price": "￥12.00"
  },
  {
    "title": "新疆葡萄干 2018新吐鲁番萄葡干500g散装5斤提子干无核小包装 1斤装试吃价",
    "detail": "//item.jd.com/39121448074.html",
    "img": "//img13.360buyimg.com/jdcms/s150x150_jfs/t1/19223/27/11347/396357/5c8f8579E0854b0f3/de28ea7bbc3c4858.jpg!q90!cc_170x170.webp",
    "price": "￥19.00"
  },
  {
    "title": "智汇 汽车坐垫夏季单片 夏天用品车垫子透气垫座椅垫单座 车用竹片凉垫 四季通用养生木珠腰靠透气凉座垫 【单人座】冰丝凉垫",
    "detail": "//item.jd.com/17576369900.html",
    "img": "//img11.360buyimg.com/jdcms/s150x150_jfs/t1/36397/5/952/329048/5cb5a330Ed26b6f7e/d4703b664e295440.jpg!q90!cc_170x170.webp",
    "price": "￥49.9039.00"
  },
  {
    "title": "小米(MI) 10000毫安 新移动电源2 /充电宝 双向快充 超薄小巧便携 银色（新版）",
    "detail": "//item.jd.com/6027746.html",
    "img": "//img30.360buyimg.com/jdcms/s150x150_jfs/t12424/150/2372038948/17182/a5cd431f/5a3b6e6cNa6ca1c81.jpg!q90!cc_170x170.webp",
    "price": "￥79.00"
  },
  {
    "title": "罗技（Logitech）M220 无线静音鼠标 畅销外形 灰色 M185升级版",
    "detail": "//item.jd.com/3290987.html",
    "img": "//img13.360buyimg.com/jdcms/s150x150_jfs/t3295/102/2307167478/95859/c28e4dc0/57df9324Nd9250f7f.jpg!q90!cc_170x170.webp",
    "price": "￥79.00"
  },
  {
    "title": "飞利浦（PHILIPS）男士电动剃须刀全身水洗干湿双剃剃胡刀胡须刀刮胡刀S1050/02",
    "detail": "//item.jd.com/5572930.html",
    "img": "//img20.360buyimg.com/jdcms/s150x150_jfs/t1/34513/2/3248/68536/5cb9696cEc22957e6/57856fa4f8d8ec52.jpg!q90!cc_170x170.webp",
    "price": "￥219.00209.00"
  },
  {
    "title": "Warsun沃尔森  X50 T6强光变焦手电筒迷你可充电远射超亮探照灯LED户外骑行家用",
    "detail": "//item.jd.com/5300413.html",
    "img": "//img20.360buyimg.com/jdcms/s150x150_jfs/t1/29188/9/15097/338621/5cac3b3aEb37448a4/edcd9f948895b945.jpg!q90!cc_170x170.webp",
    "price": "￥35.80"
  },
  {
    "title": "绿联（UGREEN）HDMI转VGA线转换器带音频接口 高清视频转接头 电脑笔记本盒子连投影仪电视显示器 黑 40248",
    "detail": "//item.jd.com/1184404.html",
    "img": "//img11.360buyimg.com/jdcms/s150x150_jfs/t1/43682/17/624/172011/5cc2d8afE88caabfe/cbd3c889bd2fdd51.jpg!q90!cc_170x170.webp",
    "price": "￥59.0055.90"
  },
  {
    "detail": "https://ccc-x.jd.com/dsp/nc?ext=aHR0cHM6Ly9jaGFubmVsLW0uamQuY29tL3BjL3BzcC8xMTM2NjAx&log=A6RGwDZkE5r85HbXA4-ymyfIYLmie-Qv4bGZt6TUyT-bDQzT_5HbLf6sSv0LANJSQjtp6rLEwMsc67y1LWcG12vwir16ZYusw6NwNyxAopiuYkT2x93Pj44jMb0BIP0vqEjUwyGqSbgSQdwrDvyxGNLIiB-EsWW-HqOoqJBD676gzGox5si1ETsjJAmu5ib31OHY314VtsBtXaJSdDJbKITcHELv4WJk9NRSjT992mSYjKUpjga47aHgR4Ih0Jw8-eg1rS8IehW3FlzC-xgan3JKo_auyufO4QIBx1JwF8PpJu6Lp7EMiGd1lhEQyitpU8LGNmOM9Kckav3wdTCs9fDQQCsKeobw8YHB2e3CQmh02T8lG4EOQ_n0Lhkx-GD_rub-6esqomnsqKPWs4RXRTgc8yprUpZVkIvAT-vDYFU&v=404",
    "img": "//img13.360buyimg.com/da/s230x306_jfs/t1/22940/25/2502/38970/5c1cbba5E536809a0/da58ba91b5b1ae64.jpg!q90!cc_230x306",
    "price": "￥"
  },
  {
    "title": "康奈男鞋 正装鞋新款真皮男士皮鞋系带圆头简约男鞋皮鞋通勤商务男鞋子德比鞋 黑色 42",
    "detail": "//item.jd.com/10117225736.html",
    "img": "//img11.360buyimg.com/jdcms/s150x150_jfs/t12979/329/106823632/184744/c12b2742/5a03b8c2N10343e1b.jpg!q90!cc_170x170.webp",
    "price": "￥229.00"
  },
  {
    "title": "统一 方便面 汤达人 日式豚骨味方便面 五连包",
    "detail": "//item.jd.com/1003979.html",
    "img": "//img11.360buyimg.com/jdcms/s150x150_jfs/t19714/23/1991913920/141548/b51a9323/5ade9b73Nf32d2052.jpg!q90!cc_170x170.webp",
    "price": "￥20.48"
  },
  {
    "title": "【2件9折】汽车魔力清洁软胶 去污 车内缝隙清洁神器 车用粘灰尘么么胶 万能内饰除尘泥 空调出风口 1袋装/多功能清洁胶",
    "detail": "//item.jd.com/31900373316.html",
    "img": "//img13.360buyimg.com/jdcms/s150x150_jfs/t1/16656/39/12957/94245/5c9c40a8Ec39467bb/e081571a65789ea5.jpg!q90!cc_170x170.webp",
    "price": "￥14.80"
  },
  {
    "title": "LURAD 拖鞋男女夏情侣一字拖居家软底室外室内浴室防滑洗澡厚底凉拖家居拖 黑色 42/43",
    "detail": "//item.jd.com/100001999907.html",
    "img": "//img11.360buyimg.com/jdcms/s150x150_jfs/t1/15388/4/4683/466549/5c3475afE60bdfbe5/eac852c6c97dc4db.jpg!q90!cc_170x170.webp",
    "price": "￥19.90"
  },
  {
    "title": "SWAROVSKI 施华洛世奇 镀玫瑰金色 闪耀经典 DIY手链 Swa Remix 手链女 时尚饰品 女友礼物 5435651",
    "detail": "//item.jd.com/8325460.html",
    "img": "//img11.360buyimg.com/jdcms/s150x150_jfs/t1/4879/32/16218/62624/5be25c6dE98b3d011/107d84636c2f7fa8.jpg!q90!cc_170x170.webp",
    "price": "￥690.00"
  },
  {
    "price": "￥"
  },
  {
    "title": "荣耀路由X2 海思凌霄双核双千兆路由器/1200M双频wifi/无线穿墙/5G双频智能无线路由/高速家用路由/支持IPv6",
    "detail": "//item.jd.com/100000996930.html",
    "img": "//img11.360buyimg.com/jdcms/s150x150_jfs/t28630/99/1539354904/75726/b4f915fa/5ce246f3N56e4420a.jpg!q90!cc_170x170.webp",
    "price": "￥149.00146.00"
  },
  {
    "title": "TP-LINK TL-WN725N免驱版 迷你USB无线网卡mini 笔记本台式机通用随身wifi接收器  智能安装",
    "detail": "//item.jd.com/3671203.html",
    "img": "//img13.360buyimg.com/jdcms/s150x150_jfs/t1/29346/21/7660/158662/5c6f67b8E7aa65c1c/edcc9b9e42ed9c35.jpg!q90!cc_170x170.webp",
    "price": "￥51.00"
  },
  {
    "title": "罗技（Logitech）M100r 光电鼠标 即插即用 三年质保（黑色）",
    "detail": "//item.jd.com/692918.html",
    "img": "//img30.360buyimg.com/jdcms/s150x150_jfs/t4399/69/1096230420/105927/323eeeea/58d8c345Nb9154a84.jpg!q90!cc_170x170.webp",
    "price": "￥45.00"
  },
  {
    "title": "【酒厂直营】泸州老窖头曲 浓香型白酒 55度 625ml 单瓶装",
    "detail": "//item.jd.com/10792994873.html",
    "img": "//img11.360buyimg.com/jdcms/s150x150_jfs/t18070/118/1279315108/220581/60f38144/5ac2deccN9bb7849e.jpg!q90!cc_170x170.webp",
    "price": "￥98.00"
  },
  {
    "title": "【拍下发2斤】马一芳 小红枣子灰枣新疆特产500g*2袋",
    "detail": "//item.jd.com/42769287838.html",
    "img": "//img14.360buyimg.com/jdcms/s150x150_jfs/t11299/158/2974423906/140247/2a7ee69b/5cdd205aNc89e629b.jpg!q90!cc_170x170.webp",
    "price": "￥29.90"
  },
  {
    "title": "【下单赠运费险，购物无忧】POLO 新款多功能背包大容量防水双肩包090-P591 深灰色",
    "detail": "//item.jd.com/34746207958.html",
    "img": "//img13.360buyimg.com/jdcms/s150x150_jfs/t18790/63/544201323/156810/43edca97/5a952883Naa5fb02b.jpg!q90!cc_170x170.webp",
    "price": "￥129.00"
  },
  {
    "title": "花王（Merries）纸尿裤 XL44片 加大号尿不湿（12-20kg）（日本原装进口）",
    "detail": "//item.jd.com/1268059.html",
    "img": "//img11.360buyimg.com/jdcms/s150x150_jfs/t1/33208/34/7337/192342/5cc138caEa5f83e40/3cefdc378ff5cf83.jpg!q90!cc_170x170.webp",
    "price": "￥125.00118.00"
  },
  {
    "title": "罗技（Logitech）K120键盘",
    "detail": "//item.jd.com/262214.html",
    "img": "//img12.360buyimg.com/jdcms/s150x150_g8/M03/0F/14/rBEHZ1C1vF4IAAAAAAEPodGHse0AADDggNgYB8AAQ-5974.jpg!q90!cc_170x170.webp",
    "price": "￥45.90"
  },
  {
    "title": "【平遥扶贫馆】山西特产 云青平遥牛肉 金钱腱250g*2袋装 熟食牛肉休闲零食 原味",
    "detail": "//item.jd.com/15163459104.html",
    "img": "//img11.360buyimg.com/jdcms/s150x150_jfs/t10912/228/2850906831/181822/610f419d/5cda26d3N77874142.jpg!q90!cc_170x170.webp",
    "price": "￥39.90"
  },
  {
    "title": "七匹狼男士内裤男平角裤中腰冰丝短裤兰精粘纤透气大码四角裤头4条装 时尚款礼盒装 175/90(XL)",
    "detail": "//item.jd.com/1200768984.html",
    "img": "//img11.360buyimg.com/jdcms/s150x150_jfs/t1/80928/11/359/277697/5ce8f85eE7a6a649f/310bffd17de33f3f.jpg!q90!cc_170x170.webp",
    "price": "￥59.00"
  },
  {
    "title": "麦车饰 汽车坐垫夏季木珠单片冰垫汽车座套座垫卡罗拉大众朗逸迈腾速腾捷达帕萨特轩逸奇骏冰丝夏天通风凉垫 木珠-棕色 单片 四季通用",
    "detail": "//item.jd.com/1742976337.html",
    "img": "//img11.360buyimg.com/jdcms/s150x150_jfs/t17797/194/970282320/427653/1cd9f35a/5ab4c0fbN4d55e21e.jpg!q90!cc_170x170.webp",
    "price": "￥69.00"
  },
  {
    "detail": "https://ccc-x.jd.com/dsp/nc?ext=aHR0cHM6Ly9jaGFubmVsLW0uamQuY29tL3BjL3BzcC83MDc5NDMy&log=kf35g-vKvChorDDGNk0IbJh6nrSZl-lY75E2uX59r-SzVAk0GL_WjPlk45oI2a4s-tzBURvPscPB5m4Zn93bI9MLrZst-7ehiftkYhCOojjBuAxxpNHJJUMjmJdQUM-CVKl4xBHQhRu61KG7mQsajhMgGDqd-_UpwOZ6YricMoXbXBrb2wrzNu2vanav4e4-NGEHAxPXTP4u5cs6fejX_NLgXZLG_czKkmMsu4PFQ5YcSOqn_K6fw8MWaLhGMCmALnr8bx65sW1tjEoTVo0tV6b7HAvOsky1jODtGd0kU4C9OF84hoGGHhbKDE01_7M_y3gOYrKaBkKRHoawSKYVcXwcDKTdfLl1tMZDDETkZ9nQ99JNX7cELFrsp2NVoOw99sp470O8VGBhJ_b-bCz1X9dD4PPJ5USeGVbSlC7kXs8&v=404",
    "img": "//img20.360buyimg.com/da/s230x306_jfs/t1/26100/14/2488/46462/5c1cbbb9Ec7af3803/bb886f0422266f4d.jpg!q90!cc_230x306",
    "price": "￥"
  },
  {
    "title": "小米(MI)移动电源2C 20000毫安 移动电源2/大容量充电宝 双USB输出 双向快充 聚合物 适用于平板/手机等",
    "detail": "//item.jd.com/5054737.html",
    "img": "//img20.360buyimg.com/jdcms/s150x150_jfs/t9073/31/1377954955/102791/7b1ab542/59b8cfe8Nccdbe0eb.jpg!q90!cc_170x170.webp",
    "price": "￥129.00"
  },
  {
    "title": "卡饰社（CarSetCity）汽车坐垫夏季 竹片凉垫凉席座垫 汽车用品 座垫座套 通用型CS-83091棕色",
    "detail": "//item.jd.com/4821370.html",
    "img": "//img14.360buyimg.com/jdcms/s150x150_jfs/t1/18547/12/11644/308238/5c90b642E2d411d76/6350610cbf84d11c.jpg!q90!cc_170x170.webp",
    "price": "￥29.9026.90"
  },
  {
    "title": "美的（Midea）电饭煲电饭锅10小时预约4L电饭煲金属拉丝机身黄晶内胆家用电饭煲MB-WFD4015",
    "detail": "//item.jd.com/1981311.html",
    "img": "//img11.360buyimg.com/jdcms/s150x150_jfs/t1/16464/18/662/99816/5c0b8e96E64450464/42bf681b614e890e.jpg!q90!cc_170x170.webp",
    "price": "￥189.00"
  },
  {
    "title": "恒都 澳洲进口 牛腱子 1kg/袋 草饲牛肉 （适用卤、炸、炒、炖）",
    "detail": "//item.jd.com/3043161.html",
    "img": "//img13.360buyimg.com/jdcms/s150x150_jfs/t3379/300/654520012/127094/8ce335e5/5811c2c5N1a5ca140.jpg!q90!cc_170x170.webp",
    "price": "￥71.80"
  },
  {
    "title": "得力(deli)0.5mm黑色直液式走珠签字笔学生考试中性笔 12支/盒S656",
    "detail": "//item.jd.com/2269519.html",
    "img": "//img12.360buyimg.com/jdcms/s150x150_jfs/t1/42484/19/4706/222789/5cde14f3E09476664/d41edd492ad4f6d3.jpg!q90!cc_170x170.webp",
    "price": "￥13.90"
  },
  {
    "title": "唯一（Winy）s999纯银项链女镶嵌施华洛世奇锆石爱心吊坠四叶草女士锁骨链首饰饰品情侣项链跳动的心 精美玫瑰花礼盒包装",
    "detail": "//item.jd.com/36127837765.html",
    "img": "//img13.360buyimg.com/jdcms/s150x150_jfs/t10264/229/2896075471/99326/157dd7dc/5cdb6a4fN28d9119e.jpg!q90!cc_170x170.webp",
    "price": "￥139.00"
  },
  {
    "title": "梵饰 纳米无痕魔力胶带双面胶卷透明强力吸附网红随手贴免打孔防滑收纳神器固定爬墙贴车用家居可水洗胶垫 长3米宽30mm厚2mm",
    "detail": "//item.jd.com/45177629208.html",
    "img": "//img14.360buyimg.com/jdcms/s150x150_jfs/t29299/79/1493770875/129798/bce4b2a5/5ce21c25N0bfc9f84.jpg!q90!cc_170x170.webp",
    "price": "￥29.00"
  },
  {
    "title": "康奈男鞋  男士休闲鞋新款商务圆头轻质休闲皮鞋套脚英伦真皮单鞋1175726 棕色 43",
    "detail": "//item.jd.com/11235135065.html",
    "img": "//img11.360buyimg.com/jdcms/s150x150_jfs/t7630/170/1297109156/293959/e86560e0/599bbf11N3a60c002.jpg!q90!cc_170x170.webp",
    "price": "￥269.00"
  },
  {
    "title": "靓蒂芬 拖鞋女浴室居家厚底情侣洗澡软底防滑家居拖 粉色 38-39",
    "detail": "//item.jd.com/100002563393.html",
    "img": "//img11.360buyimg.com/jdcms/s150x150_jfs/t1/39570/38/511/286549/5cb9a2dfE84b3f1a7/fd2a1ff71317aaca.jpg!q90!cc_170x170.webp",
    "price": "￥13.80"
  },
  {
    "title": "美国爱诗普霖（iSpring) 原装进口净水器家用直饮净水机自来水前置过滤器五级RO反渗透过滤纯水机 高配版（6级弱碱性水）",
    "detail": "//item.jd.com/28900454711.html",
    "img": "//img12.360buyimg.com/jdcms/s150x150_jfs/t1/38728/14/7216/197266/5ce7c3e1Ed3531692/efe13d31a4707551.jpg!q90!cc_170x170.webp",
    "price": "￥2599.00"
  },
  {
    "title": "菲拉格慕（Ferragamo）梦中情人淡香水（香氛）30ml 香水女士【意大利进口】",
    "detail": "//item.jd.com/207991.html",
    "img": "//img12.360buyimg.com/jdcms/s150x150_jfs/t1/50551/1/762/418983/5ce77e4eEb5ce19a2/e6ce7aeec2ebf414.jpg!q90!cc_170x170.webp",
    "price": "￥99.00"
  },
  {
    "img": "//img12.360buyimg.com/mobilecms/s80x80_jfs/t6088/181/4654620150/301857/4a2a97ba/5966eb57N1401ee38.jpg!q90!cc_80x80",
    "price": "￥31.6026.00"
  },
  {
    "title": "腾达（Tenda）AC11 双千兆路由器穿墙增强型 家用游戏无线路由器 智能5G双频1200M  千兆端口光纤适用",
    "detail": "//item.jd.com/100000700300.html",
    "img": "//img11.360buyimg.com/jdcms/s150x150_jfs/t1/21644/20/10471/174223/5c875be8Ea7f484ea/e24d65c115073ad0.jpg!q90!cc_170x170.webp",
    "price": "￥169.00"
  },
  {
    "title": "腾达（Tenda）U6免驱版 300M USB无线网卡 随身WiFi接收器 台式机笔记本通用 扩展器",
    "detail": "//item.jd.com/4208675.html",
    "img": "//img14.360buyimg.com/jdcms/s150x150_jfs/t1/16237/32/10511/120022/5c8759f1E55115df2/4b4276855a2ce59b.jpg!q90!cc_170x170.webp",
    "price": "￥40.00"
  },
  {
    "title": "罗技（G）G102有线鼠标 游戏鼠标 RBG鼠标 轻量化设计 吃鸡鼠标 绝地求生 黑色 自营 8000DPI",
    "detail": "//item.jd.com/4155894.html",
    "img": "//img14.360buyimg.com/jdcms/s150x150_jfs/t4642/55/3978388666/72688/c8b2dcf/59080db2N7ae9168e.jpg!q90!cc_170x170.webp",
    "price": "￥119.00"
  },
  {
    "title": "【父母亲节 巨惠来袭】 风水纯铜合金九层13文昌塔摆件9层文昌塔旺文助学业七夕情人节礼物品非老凤祥 九层大号紫铜色",
    "detail": "//item.jd.com/32431568958.html",
    "img": "//img13.360buyimg.com/jdcms/s150x150_jfs/t25723/235/877552269/128125/2ae95ecb/5b7f7133Na1a9c439.jpg!q90!cc_170x170.webp",
    "price": "￥268.00"
  },
  {
    "title": "白玉貔貅玉石玉坠皮丘吊坠招财男女款貔貅挂件饰品 貔貅吊坠【绳索款式随机】",
    "detail": "//item.jd.com/43788409081.html",
    "img": "//img14.360buyimg.com/jdcms/s150x150_jfs/t1/32158/24/7063/88934/5c93a39fEd0ba7573/a737b516158f1471.jpg!q90!cc_170x170.webp",
    "price": "￥39.90"
  },
  {
    "img": "//img11.360buyimg.com/mobilecms/s210x110_jfs/t17353/344/1646498118/126977/1645b5d5/5ad59694N0793f83f.jpg!q90!cc_210x110",
    "price": "￥"
  },
  {
    "title": "得力(deli)四联镂空桌面文件框 四栏带标签稳固文件栏/文件筐/资料框 黑色9848",
    "detail": "//item.jd.com/1315792.html",
    "img": "//img11.360buyimg.com/jdcms/s150x150_jfs/t17194/230/2032147345/390344/3c5df49/5adfea11N1a2f23f0.jpg!q90!cc_170x170.webp",
    "price": "￥16.50"
  },
  {
    "title": "帮宝适(Pampers)超薄干爽绿帮拉拉裤XL136片(12-17 kg)加大码 裤型纸尿裤尿不湿超值彩箱装",
    "detail": "//item.jd.com/7202389.html",
    "img": "//img10.360buyimg.com/jdcms/s150x150_jfs/t1/5688/38/3240/137951/5b98edfbEdbebea4a/41b56f28e66d1922.jpg!q90!cc_170x170.webp",
    "price": "￥209.00"
  },
  {
    "title": "鳄鱼恤 皮鞋男2019春季新款商务休闲鞋正套脚光面皮鞋男爸爸鞋 黑色 41",
    "detail": "//item.jd.com/42295015360.html",
    "img": "//img14.360buyimg.com/jdcms/s150x150_jfs/t29947/340/1545640204/145316/f0a97d51/5ce4b7f8N9304d19b.jpg!q90!cc_170x170.webp",
    "price": "￥178.00"
  },
  {
    "title": "FOOJO 防撞墙贴 70*77cm白色砖纹防水贴纸 3d立体自粘墙纸壁纸 客厅电视背景墙装饰贴卧室墙贴 单片装",
    "detail": "//item.jd.com/100001419076.html",
    "img": "//img11.360buyimg.com/jdcms/s150x150_jfs/t26338/96/1679540656/398137/7a01efd5/5be93ba1Nd8a1f5dd.jpg!q90!cc_170x170.webp",
    "price": "￥17.9015.90"
  },
  {
    "title": "得力(deli)0012 高强度订书钉 12#订书针 1000枚/盒 10盒装",
    "detail": "//item.jd.com/196856.html",
    "img": "//img11.360buyimg.com/jdcms/s150x150_jfs/t14359/237/1588840497/235381/e0d6e982/5a532b78Nd11200fb.jpg!q90!cc_170x170.webp",
    "price": "￥12.00"
  },
  {
    "title": "卡西欧（CASIO）手表 G-SHOCK复仇者联盟限量合作款 GA-110CAPTAIN-2 美国队长",
    "detail": "//item.jd.com/100004736860.html",
    "img": "//img11.360buyimg.com/jdcms/s150x150_jfs/t1/36238/1/1292/383528/5cb7eb8dE4f82211c/8929d3ce64f9e3d0.jpg!q90!cc_170x170.webp",
    "price": "￥1590.00"
  },
  {
    "title": "ℍℍℍ【6.18特惠】2019玄关年年有余富贵吉祥风格款九鱼图客厅装饰画现代简约有框画 XG0337 40*80",
    "detail": "//item.jd.com/45672039200.html",
    "img": "//img14.360buyimg.com/jdcms/s150x150_jfs/t1/23939/29/9184/272795/5c7cbc3aEb49bd269/282a766f67bd3f2d.jpg!q90!cc_170x170.webp",
    "price": "￥179.00"
  },
  {
    "title": "荣耀移动电源 10000mAh 标准版AP08L 充电宝 Micro USB单输入（白色）",
    "detail": "//item.jd.com/6177782.html",
    "img": "//img30.360buyimg.com/jdcms/s150x150_jfs/t3226/44/8945220795/121959/4f9462e8/58cb8564N4c9bc916.jpg!q90!cc_170x170.webp",
    "price": "￥129.00"
  },
  {
    "title": "苏泊尔（SUPOR）球釜微压电饭煲4L耐用大火力易操控电饭锅 香弹柴火饭 拉丝不锈钢机身40FC9033Q",
    "detail": "//item.jd.com/5324065.html",
    "img": "//img20.360buyimg.com/jdcms/s150x150_jfs/t1/25897/2/15324/306428/5caf09c0E469c36a6/013f2b12b87a346f.jpg!q90!cc_170x170.webp",
    "price": "￥299.00"
  },
  {
    "title": "凡菲（fancy fix）厨房自粘防水防油烟墙贴纸 橱柜瓷砖灶台面耐高温贴膜透明5米600x5000mm",
    "detail": "//item.jd.com/100003254355.html",
    "img": "//img11.360buyimg.com/jdcms/s150x150_jfs/t28423/74/1308444141/121248/98ea5e50/5cdd2349Nff987cec.jpg!q90!cc_170x170.webp",
    "price": "￥29.00"
  },
  {
    "title": "[买3赠1]纯色本味 冷冻舟山带鱼段（去头去尾）烧烤 500g/袋 带鱼 自营 生鲜  清蒸食材 海鲜水产",
    "detail": "//item.jd.com/7868718.html",
    "img": "//img10.360buyimg.com/jdcms/s150x150_jfs/t24247/70/2171371636/388349/ece59414/5b765fc9N00cac47e.jpg!q90!cc_170x170.webp",
    "price": "￥19.9019.00"
  },
  {
    "img": "//img20.360buyimg.com/uba/s230x305_jfs/t1/4891/39/16046/118298/5be03bc1E6ac81c90/a9a88ee3ba3feaa9.png!q90",
    "price": "￥"
  },
  {
    "title": "唯一银项链女士款四叶草情侣锁骨链999足银吊坠时尚银颈链首饰品简约日韩版学生配证书礼物",
    "detail": "//item.jd.com/6863044.html",
    "img": "//img30.360buyimg.com/jdcms/s150x150_jfs/t1/64026/35/127/194355/5ce3576bEefd2e3c1/cd22f49cec316f07.jpg!q90!cc_170x170.webp",
    "price": "￥139.00129.00"
  },
  {
    "title": "【七仓闪发】赣春纳米强力无痕魔力胶带双面透明胶卷固定爬墙贴随手贴家用车用无痕防水万次纳米双面胶 3厘米宽*3米长(抖音同款)",
    "detail": "//item.jd.com/44285301989.html",
    "img": "//img14.360buyimg.com/jdcms/s150x150_jfs/t28126/179/1357007947/105300/a1eb842b/5cde1447Ndc184138.jpg!q90!cc_170x170.webp",
    "price": "￥29.0025.00"
  },
  {
    "title": "足康乐 夏季凉拖鞋男士女家居家用室内防滑厚底夏天情侣塑料洗澡浴室拖鞋 条条纹-藏青 42-43适合平时穿41-42的脚",
    "detail": "//item.jd.com/10089584616.html",
    "img": "//img11.360buyimg.com/jdcms/s150x150_jfs/t1/19878/9/12705/167374/5c9a333dE84f551d7/14b2a5aa7d784454.jpg!q90!cc_170x170.webp",
    "price": "￥15.90"
  },
  {
    "title": "【秒杀20片148元送锅】顶诺（DNUO）菲力牛排四季套餐10片1000G 腌制调理牛肉生鲜黑椒",
    "detail": "//item.jd.com/26990091037.html",
    "img": "//img12.360buyimg.com/jdcms/s150x150_jfs/t1/14529/23/11879/247964/5c9352d3E3e1d9dee/5d57f5388098166c.jpg!q90!cc_170x170.webp",
    "price": "￥99.00"
  },
  {
    "title": "南孚(NANFU)CR2032纽扣电池5粒装 3V 锂电池 适用于手表/主板/汽车钥匙/电子秤/遥控器等",
    "detail": "//item.jd.com/2275455.html",
    "img": "//img12.360buyimg.com/jdcms/s150x150_jfs/t1/30811/32/11234/247024/5cb6852fEde832dd1/d4cdd251feb58ee3.jpg!q90!cc_170x170.webp",
    "price": "￥12.90"
  },
  {
    "title": "七匹狼钱包男士短款商务横款时尚钱夹男式卡包两折皮夹送礼礼盒装钱包 3A0854141-01 黑色",
    "detail": "//item.jd.com/6744413.html",
    "img": "//img30.360buyimg.com/jdcms/s150x150_jfs/t25684/58/991528972/384519/aa57b7e3/5b83b07dNe6d6e988.jpg!q90!cc_170x170.webp",
    "price": "￥129.00"
  },
  {
    "title": "联想（Lenovo）鼠标 有线鼠标 办公鼠标 联想大红点M120Pro有线鼠标 台式机鼠标 笔记本鼠标 京东自营",
    "detail": "//item.jd.com/1337248.html",
    "img": "//img11.360buyimg.com/jdcms/s150x150_jfs/t1/5916/10/5128/160256/5b9f0e9bEbc9f4db4/14f062751af6ce26.jpg!q90!cc_170x170.webp",
    "price": "￥29.00"
  },
  {
    "title": "羽兰JOLEE 手链 S925银手镯韩版简约时尚托帕石彩色宝石爱心新款首饰品送女友生日520礼物",
    "detail": "//item.jd.com/4498857.html",
    "img": "//img14.360buyimg.com/jdcms/s150x150_jfs/t26785/49/1802436854/85192/e3a2050e/5bee31b8N0826aa69.jpg!q90!cc_170x170.webp",
    "price": "￥328.00308.00"
  },
  {
    "title": "TP-LINK TL-WDN5200H免驱版 650M 双频USB无线网卡台式机笔记本通用 随身WiFi接收器 发射器",
    "detail": "//item.jd.com/4069582.html",
    "img": "//img14.360buyimg.com/jdcms/s150x150_jfs/t1/21391/21/4839/122850/5c35bf6bE018711f7/770e53774b457bbf.jpg!q90!cc_170x170.webp",
    "price": "￥107.00"
  },
  {
    "title": "绿联（UGREEN）六类CAT6类网线 千兆网络连接线 工程家用电脑宽带监控非屏蔽8芯双绞成品跳线 2米 黑 20160",
    "detail": "//item.jd.com/1608752.html",
    "img": "//img11.360buyimg.com/jdcms/s150x150_jfs/t1/19741/18/10721/303935/5c89f0a2Ed22cbd2c/71df6508821fc537.jpg!q90!cc_170x170.webp",
    "price": "￥12.00"
  },
  {
    "title": "蒙都 神涮牛肉片 500g/桶 家庭肥牛片 火锅食材",
    "detail": "//item.jd.com/4520629.html",
    "img": "//img14.360buyimg.com/jdcms/s150x150_jfs/t17047/5/2156546983/525750/c95952b9/5aea7c3fNcde6cd8e.jpg!q90!cc_170x170.webp",
    "price": "￥49.00"
  },
  {
    "price": "￥"
  },
  {
    "title": "鳄鱼恤 皮鞋男2019春季新款透气商务休闲鞋正装婚礼光面皮鞋子 黑色（镂空） 41",
    "detail": "//item.jd.com/19690791046.html",
    "img": "//img11.360buyimg.com/jdcms/s150x150_jfs/t1/81618/24/345/145437/5ce7c9c6E336615a6/6226165039c4ef8c.jpg!q90!cc_170x170.webp",
    "price": "￥198.00"
  },
  {
    "title": "光幻 后现代复古led美式简北欧式吊灯大客厅卧室灯具创意个性乡村铁艺田园楼梯饭餐厅艺术灯饰 6头+1（直径78cm高40cm） 暖光LED",
    "detail": "//item.jd.com/34339940485.html",
    "img": "//img13.360buyimg.com/jdcms/s150x150_jfs/t1/35476/27/2491/260776/5cb5ec91E90408c80/d7dc92218550fe36.jpg!q90!cc_170x170.webp",
    "price": "￥799.00"
  },
  {
    "title": "美的（Midea）M1-L213C 快捷微波炉 微电脑操控 360°转盘加热 智能蒸煮菜单 21升",
    "detail": "//item.jd.com/2469956.html",
    "img": "//img12.360buyimg.com/jdcms/s150x150_jfs/t1/19564/9/10782/138700/5c89d43bEd6a819af/03a290bb867948cb.jpg!q90!cc_170x170.webp",
    "price": "￥359.00"
  },
  {
    "title": "雷士（NVC）led集成吊顶灯 面板灯平板灯铝扣板厨房灯厨卫灯 16W白光6800K  30*30cm",
    "detail": "//item.jd.com/100001451702.html",
    "img": "//img11.360buyimg.com/jdcms/s150x150_jfs/t1/9967/23/2146/32144/5bd15811E35304f53/402c606f428eceac.jpg!q90!cc_170x170.webp",
    "price": "￥59.90"
  },
  {
    "title": "ℍℍℍ【6.18特惠】新中式古韵古典简约酒店唐卡风格挂画宾馆装饰画客房喷绘有框联画 XG0166 70*140（PS框+布艺画）",
    "detail": "//item.jd.com/45672049924.html",
    "img": "//img14.360buyimg.com/jdcms/s150x150_jfs/t1/18713/34/10327/258212/5c85d982E43101600/38db053b299b16e7.jpg!q90!cc_170x170.webp",
    "price": "￥459.00"
  },
  {
    "img": "//img10.360buyimg.com/mobilecms/s80x80_jfs/t3637/144/123275391/148983/9a424ea0/58003a14N58987d08.jpg!q90!cc_80x80",
    "price": "￥38.4062.40"
  },
  {
    "title": "罗马仕LT20移动电源20000毫安大容量充电宝 智能数显苹果/安卓/Type-C/小米/华为通用 LT20数显2万毫安",
    "detail": "//item.jd.com/27305099378.html",
    "img": "//img12.360buyimg.com/jdcms/s150x150_jfs/t1/82256/10/433/182648/5ce95ab5Eee37eb3e/255646b21aafd0d0.jpg!q90!cc_170x170.webp",
    "price": "￥79.00"
  },
  {
    "title": "【乌鲁木齐馆】哎呦喂 新疆吐鲁番特产四色葡萄干500g*2袋 现采现晾",
    "detail": "//item.jd.com/31048350037.html",
    "img": "//img13.360buyimg.com/jdcms/s150x150_jfs/t28207/164/1343476002/140957/9ba8130f/5cdcf201N4f505b84.jpg!q90!cc_170x170.webp",
    "price": "￥42.00"
  },
  {
    "title": "高姿 玻尿酸化妆品套装 补水保湿护肤套装水活奢享四件套套装女（洗面奶+爽肤水+乳液+面霜+面膜）",
    "detail": "//item.jd.com/8263912.html",
    "img": "//img11.360buyimg.com/jdcms/s150x150_jfs/t1/11303/37/10605/364526/5c81f88aE0b282c64/6d4d2d73bf1c184c.jpg!q90!cc_170x170.webp",
    "price": "￥129.00"
  },
  {
    "title": "妙洁 一次性保鲜膜盒装60m送20m 冰箱微波炉适用",
    "detail": "//item.jd.com/4722407.html",
    "img": "//img14.360buyimg.com/jdcms/s150x150_jfs/t22303/79/1693309256/101317/84d7b14f/5b30b60aN3dc420bd.jpg!q90!cc_170x170.webp",
    "price": "￥18.9016.90"
  },
  {
    "title": "ℋℎℐℒℓℳ年轻人穿的男士秋衣秋裤套装棉青年衬衣衬裤打底春秋薄款男土保暖内衣班 8201V领黑色 165(M)",
    "detail": "//item.jd.com/44584401038.html",
    "img": "//img14.360buyimg.com/jdcms/s150x150_jfs/t1/34497/32/2861/113027/5cb6e960E639473f9/536dfb8aa2438c85.jpg!q90!cc_170x170.webp",
    "price": "￥129.00"
  },
  {
    "title": "妙洁 保鲜袋食品袋厚实抽取式 大中小号3件组合装220只",
    "detail": "//item.jd.com/1347031.html",
    "img": "//img11.360buyimg.com/jdcms/s150x150_jfs/t23815/161/2371173377/418978/fded08ae/5b7e2251N5b797362.jpg!q90!cc_170x170.webp",
    "price": "￥14.9013.90"
  },
  {
    "title": "新疆囊饼早餐囊特产芝麻油酥馕8个烤馕饼 新疆原味馕糕点心传统手工小吃馕饼 方便食品",
    "detail": "//item.jd.com/45111555616.html",
    "img": "//img14.360buyimg.com/jdcms/s150x150_jfs/t1/26367/14/15203/424878/5cae0576E0e537f48/7ecf99bc14c403f1.png!q90!cc_170x170.webp",
    "price": "￥66.00"
  },
  {
    "title": "天堂伞 黑胶加大加固三折晴雨伞33188E藏青色",
    "detail": "//item.jd.com/1336250.html",
    "img": "//img11.360buyimg.com/jdcms/s150x150_jfs/t3208/128/5610451092/185712/7b14491a/5875e378N5360f782.jpg!q90!cc_170x170.webp",
    "price": "￥39.9038.00"
  },
  {
    "title": "炊大皇 不锈钢厨房置物架微波炉架烤箱架 落地收纳储物架 厨房用品 银色（80*35*60/三层）",
    "detail": "//item.jd.com/43161423692.html",
    "img": "//img14.360buyimg.com/jdcms/s150x150_jfs/t30694/52/1623472031/157414/5fd6b707/5ce61437N76c2a920.jpg!q90!cc_170x170.webp",
    "price": "￥159.00"
  },
  {
    "title": "德国进口牛奶 德亚（Weidendorf）全脂纯牛奶 早餐奶 200ml*30盒 整箱装（新老包装随机发货）",
    "detail": "//item.jd.com/896024.html",
    "img": "//img11.360buyimg.com/jdcms/s150x150_jfs/t23464/85/841467916/273987/4a02a3ad/5b44150eN15f67ca3.jpg!q90!cc_170x170.webp",
    "price": "￥79.9069.90"
  },
  {
    "title": "恒都 筋头巴脑 1kg/袋 谷饲牛肉 生鲜自营",
    "detail": "//item.jd.com/4924290.html",
    "img": "//img14.360buyimg.com/jdcms/s150x150_jfs/t5788/136/5192222029/307348/ed016353/595ca9f5N934a0c69.jpg!q90!cc_170x170.webp",
    "price": "￥49.80"
  },
  {
    "img": "//img11.360buyimg.com/mobilecms/s210x110_jfs/t20077/139/1328950818/740361/4f9677cd/5b1b86a3N47f093e1.png!q90!cc_210x110",
    "price": "￥"
  },
  {
    "title": "得力(deli)48只25mm彩色长尾票夹 金属票据夹燕尾夹铁夹子 中号8554",
    "detail": "//item.jd.com/385628.html",
    "img": "//img13.360buyimg.com/jdcms/s150x150_jfs/t16078/207/977698882/245983/8450482b/5a45924aN618cfe3f.jpg!q90!cc_170x170.webp",
    "price": "￥12.50"
  },
  {
    "title": "带带帅 男士商务正装宽8CM懒人一拉的结婚新郎领带 免打拉链领带懒人韩版潮 礼盒装 黑色细纹拉链款",
    "detail": "//item.jd.com/1533647577.html",
    "img": "//img11.360buyimg.com/jdcms/s150x150_jfs/t16537/343/1792791824/202431/fe1afc22/5a7092e3N51498875.jpg!q90!cc_170x170.webp",
    "price": "￥29.00"
  },
  {
    "title": "韩国进口 AHC 透明质酸神仙水乳礼盒套装 水100ml+乳100ml+水30ml+乳30ml 保湿滋润",
    "detail": "//item.jd.com/5905959.html",
    "img": "//img20.360buyimg.com/jdcms/s150x150_jfs/t16696/201/2711505440/102815/76ff524e/5b07771bN471c3f7c.jpg!q90!cc_170x170.webp",
    "price": "￥229.00205.00"
  },
  {
    "title": "【新品预售】Manato全铝镁合金拉杆箱品牌铝框铝合金行李箱女万向轮旅行箱男20寸24寸网红爆款登机 黑色 24寸全铝镁合金箱体",
    "detail": "//item.jd.com/45758412942.html",
    "img": "//img14.360buyimg.com/jdcms/s150x150_jfs/t29746/272/1581072157/126193/d03195e3/5ce4ed1cN87e77141.jpg!q90!cc_170x170.webp",
    "price": "￥628.00"
  },
  {
    "title": "(CASIO)卡西欧男表 女表卡西欧手表情侣表学生时尚运动防水夜光 太阳能光能双显电子表 04 太阳能表：AQ-S810WC-7A",
    "detail": "//item.jd.com/12884227950.html",
    "img": "//img11.360buyimg.com/jdcms/s150x150_jfs/t1/37219/28/10734/247551/5ce6c87cEcbf0675e/6b9c56120d65e39b.jpg!q90!cc_170x170.webp",
    "price": "￥319.00"
  },
  {
    "title": "九阳（Joyoung）电饭煲多功能智能电饭锅3L JYF-30FE08",
    "detail": "//item.jd.com/1637987.html",
    "img": "//img11.360buyimg.com/jdcms/s150x150_jfs/t1/38879/7/4254/225694/5cc82522E19a84d20/4290f9867bd889d4.jpg!q90!cc_170x170.webp",
    "price": "￥138.00"
  },
  {
    "title": "福临门 食用油 葵花籽清香食用植物调和油5L 中粮出品",
    "detail": "//item.jd.com/1523697.html",
    "img": "//img11.360buyimg.com/jdcms/s150x150_jfs/t1/205/4/14447/185505/5bdab250E4f0ea9d3/2bb3ddfe50771599.jpg!q90!cc_170x170.webp",
    "price": "￥39.8038.90"
  },
  {
    "title": "ℍℍℍ【6.18特惠】玄关客厅配电源箱挂画现代装饰画简约北欧电表箱遮挡箱电闸墙壁画 S 直接遮盖62*82",
    "detail": "//item.jd.com/45672044949.html",
    "img": "//img14.360buyimg.com/jdcms/s150x150_jfs/t1/30152/11/12381/73257/5cb7b7e5E7c2635fb/8ac24d2173247f28.jpg!q90!cc_170x170.webp",
    "price": "￥189.00"
  },
  {
    "title": "罗马仕（ROMOSS）sense6加量版20000毫安大容量充电宝手机平板移动电源2双输出适用于苹果小米华为oppo白色",
    "detail": "//item.jd.com/1138288.html",
    "img": "//img11.360buyimg.com/jdcms/s150x150_jfs/t26377/115/1202472604/228328/7f814dd1/5bc3f040N12b0d1dd.jpg!q90!cc_170x170.webp",
    "price": "￥89.00"
  },
  {
    "title": "佳佰 17cm送麻绳防滑垫陶瓷花瓶 北欧田园艺术风格圆口袋 简约家居装饰现代摆设花插",
    "detail": "//item.jd.com/6570543.html",
    "img": "//img30.360buyimg.com/jdcms/s150x150_jfs/t1/28377/27/8357/435665/5c7536a3Ebead79c8/169870dd4afea40d.jpg!q90!cc_170x170.webp",
    "price": "￥25.9024.50"
  },
  {
    "title": "蔻一（Cnoles）包包女包新品经典LOGO印花单肩包女时尚大气斜挎女包欧美潮流女士包包 啡配杏",
    "detail": "//item.jd.com/45459578469.html",
    "img": "//img14.360buyimg.com/jdcms/s150x150_jfs/t1/47139/29/784/261379/5ce762b2E9ba9f648/4e988aebdf5ce088.jpg!q90!cc_170x170.webp",
    "price": "￥229.00"
  },
  {
    "img": "//img13.360buyimg.com/uba/s230x305_jfs/t1/318/22/16219/113237/5be03bc0E4ca6e404/768e5389ee544334.png!q90",
    "price": "￥"
  },
  {
    "title": "ℍℍℍ【6.18特惠】实木换鞋凳简约现代沙发凳创意鞋架客厅储物凳多功能穿鞋凳 B款50cm咖啡色 放心购",
    "detail": "//item.jd.com/41164094922.html",
    "img": "//img14.360buyimg.com/jdcms/s150x150_jfs/t1/27765/12/5287/174135/5c3c2d28E2d32e5c8/9fb119ffcbc8b83b.jpg!q90!cc_170x170.webp",
    "price": "￥399.00"
  },
  {
    "title": "光幻 美式吊灯客厅简约现代水晶吊灯大气S金简欧温馨餐厅卧室灯 6头42W(直径75cm) LED暖光",
    "detail": "//item.jd.com/34342248406.html",
    "img": "//img13.360buyimg.com/jdcms/s150x150_jfs/t1/30166/14/11809/364002/5cb5ec8eE53bf3e96/2a1a30766f3f78f0.jpg!q90!cc_170x170.webp",
    "price": "￥861.00"
  },
  {
    "title": "格兰仕（Galanz）家用小型迷你平板机械旋钮微波炉 20升700瓦 六档火力 精准控温 加热解冻P70F20L-DG(S0)",
    "detail": "//item.jd.com/3372774.html",
    "img": "//img13.360buyimg.com/jdcms/s150x150_jfs/t1/26314/27/14158/188913/5ca599b5E1a3711c9/b8095561d7c3cab0.jpg!q90!cc_170x170.webp",
    "price": "￥348.00"
  },
  {
    "title": "【父母亲节 巨惠来袭】 一鹿平安汽车香水座式车内饰品摆件车载香水除异味男女用金钱豹马七夕情人节礼物品 捷豹-银",
    "detail": "//item.jd.com/32437701056.html",
    "img": "//img13.360buyimg.com/jdcms/s150x150_jfs/t23461/267/2400519666/135478/46682d09/5b7f30c1N660b844f.jpg!q90!cc_170x170.webp",
    "price": "￥138.00"
  },
  {
    "title": "协和 维生素E乳 100ml*1瓶（按压式)面霜 保湿滋润乳液 身体乳 护手霜",
    "detail": "//item.jd.com/4397408.html",
    "img": "//img14.360buyimg.com/jdcms/s150x150_jfs/t25366/239/2059763562/147882/976a996a/5bf4f2d6N914d1394.jpg!q90!cc_170x170.webp",
    "price": "￥15.80"
  },
  {
    "price": "￥"
  },
  {
    "title": "小米（MI）米家走步机 免安装可折叠家用静音款非平板跑步机",
    "detail": "//item.jd.com/100005188068.html",
    "img": "//img11.360buyimg.com/jdcms/s150x150_jfs/t28408/55/1293521650/388787/2be8c03a/5cdcd202N843289e5.jpg!q90!cc_170x170.webp",
    "price": "￥1799.00"
  },
  {
    "title": "腾达（Tenda）U9 650M免驱版 USB无线网卡 5G双频 台式机笔记本通用 迷你mini 随身WiFi接收器 发射器",
    "detail": "//item.jd.com/8129987.html",
    "img": "//img11.360buyimg.com/jdcms/s150x150_jfs/t1/11324/35/11450/122975/5c8759a5Ee2365fb3/8a1e253e659066ef.jpg!q90!cc_170x170.webp",
    "price": "￥55.00"
  },
  {
    "title": "小米（MI）极简都市双肩包 休闲商务笔记本电脑包14英寸 男女书包双肩背包 深灰色",
    "detail": "//item.jd.com/4208541.html",
    "img": "//img14.360buyimg.com/jdcms/s150x150_jfs/t5302/355/2316729563/322624/273a8340/59199299N2b19f8a9.jpg!q90!cc_170x170.webp",
    "price": "￥149.00"
  },
  {
    "title": "【京东七仓配送】无线电动抽水器桶装水自动上水器家用充电手压式压水器纯净水桶饮水机矿泉水吸水器加水器泵 默认款【京东五星推荐购买】一年免费换新",
    "detail": "//item.jd.com/16105838590.html",
    "img": "//img11.360buyimg.com/jdcms/s150x150_jfs/t1/37576/37/8836/177599/5cd050d6E333a8ffe/717ee72c8e5390cf.jpg!q90!cc_170x170.webp",
    "price": "￥48.0045.00"
  }
]