[
  {
    "title": "卧龙手工小麻花280gx3袋多口味",
    "original_price": "￥69.8",
    "promo_price": "￥29.9",
    "percent": "已抢购7%",
    "num": "已抢984件",
    "href": "//item.taobao.com/item.htm?id=569967779810&umpChannel=qianggou&u_channel=qianggou",
    "img": "http://img.alicdn.com/tps/TB1k8b.LpXXXXbMXpXXXXXXXXXX-114-114.png"
  },
  {
    "title": "俞兆林4条装男士莫代尔内裤",
    "original_price": "￥81",
    "promo_price": "￥29.3",
    "percent": "已抢购84%",
    "num": "已抢3414件",
    "href": "//item.taobao.com/item.htm?id=569225603230&umpChannel=qianggou&u_channel=qianggou",
    "img": "//img.alicdn.com/bao/uploaded/i4/O1CN01lQ2jcm1ovUVoM3q6C_!!0-juitemmedia.jpg_220x220q90.jpg"
  },
  {
    "title": "红米note7Pro",
    "original_price": "￥1599",
    "promo_price": "￥1599",
    "percent": "已抢购29%",
    "num": "已抢85件",
    "href": "//item.taobao.com/item.htm?id=588890972703&umpChannel=qianggou&u_channel=qianggou",
    "img": "//img.alicdn.com/bao/uploaded/i2/O1CN01Mt6PUs1IOueZobcQW_!!2-juitemmedia.png_220x220q90.jpg"
  },
  {
    "title": "凉席冰丝席三件套1.8m床可水洗",
    "original_price": "￥79.8",
    "promo_price": "￥39",
    "percent": "已抢购28%",
    "num": "已抢555件",
    "href": "//item.taobao.com/item.htm?id=587648907404&umpChannel=qianggou&u_channel=qianggou",
    "img": "//img.alicdn.com/bao/uploaded/i3/O1CN01HExdsx1uYUKaItzMj_!!0-juitemmedia.jpg_220x220q90.jpg"
  },
  {
    "title": "KEHEAL科西空气循环扇",
    "original_price": "￥1999",
    "promo_price": "￥799",
    "percent": "已抢购99%",
    "num": "已抢643件",
    "href": "//item.taobao.com/item.htm?id=587626229239&umpChannel=qianggou&u_channel=qianggou",
    "img": "//img.alicdn.com/bao/uploaded/i3/O1CN01LyzXdA2GXxPxntC6X_!!0-juitemmedia.jpg_220x220q90.jpg"
  },
  {
    "title": "飞科可折叠家用大功率电吹风",
    "original_price": "￥199",
    "promo_price": "￥49.9",
    "percent": "",
    "num": "已抢0件",
    "href": "//item.taobao.com/item.htm?id=39589815142&umpChannel=qianggou&u_channel=qianggou",
    "img": "//img.alicdn.com/bao/uploaded/i1/2087889560/O1CN01y9wgJA2KUWuxdB27V_!!0-item_pic.jpg_220x220q90.jpg"
  },
  {
    "title": "美的大1.5匹变频",
    "original_price": "￥3099",
    "promo_price": "￥2499",
    "percent": "已抢购43%",
    "num": "已抢1586件",
    "href": "//item.taobao.com/item.htm?id=565566163853&umpChannel=qianggou&u_channel=qianggou",
    "img": "//g.alicdn.com/s.gif"
  },
  {
    "title": "A4纸打印复印纸70g单包500张",
    "original_price": "￥26.8",
    "promo_price": "￥15.2",
    "percent": "已抢购72%",
    "num": "已抢3712件",
    "href": "//item.taobao.com/item.htm?id=44711208794&umpChannel=qianggou&u_channel=qianggou",
    "img": "//g.alicdn.com/s.gif"
  },
  {
    "title": "[爆售460万台 ]飞科剃须刀",
    "original_price": "￥199",
    "promo_price": "￥59",
    "percent": "已抢购30%",
    "num": "已抢879件",
    "href": "//item.taobao.com/item.htm?id=36952255601&umpChannel=qianggou&u_channel=qianggou",
    "img": "//g.alicdn.com/s.gif"
  },
  {
    "title": "尤妮佳纸尿裤L54",
    "original_price": "￥138",
    "promo_price": "￥94",
    "percent": "",
    "num": "已抢0件",
    "href": "//item.taobao.com/item.htm?id=530590018100&umpChannel=qianggou&u_channel=qianggou",
    "img": "//g.alicdn.com/s.gif"
  },
  {
    "title": "无线感应杀菌声波电动成人牙刷",
    "original_price": "￥289",
    "promo_price": "￥139",
    "percent": "已抢购1%",
    "num": "已抢14件",
    "href": "//item.taobao.com/item.htm?id=580563547620&umpChannel=qianggou&u_channel=qianggou",
    "img": "//g.alicdn.com/s.gif"
  },
  {
    "title": "鹿口抑菌型润滑液呵护女性健康",
    "original_price": "￥168",
    "promo_price": "￥79",
    "percent": "已抢购3%",
    "num": "已抢24件",
    "href": "//item.taobao.com/item.htm?id=588249145825&umpChannel=qianggou&u_channel=qianggou",
    "img": "//g.alicdn.com/s.gif"
  },
  {
    "title": "Apple/苹果 11英寸 iPad Pro",
    "original_price": "￥7149",
    "promo_price": "￥5679",
    "percent": "已抢购2%",
    "num": "已抢5件",
    "href": "//item.taobao.com/item.htm?id=581104644378&umpChannel=qianggou&u_channel=qianggou",
    "img": "//g.alicdn.com/s.gif"
  },
  {
    "title": "有机甜糯玉米新鲜粘玉米10支装",
    "original_price": "￥79.9",
    "promo_price": "￥34.5",
    "percent": "已抢购12%",
    "num": "已抢354件",
    "href": "//item.taobao.com/item.htm?id=585553815576&umpChannel=qianggou&u_channel=qianggou",
    "img": "//g.alicdn.com/s.gif"
  },
  {
    "title": "[与狼共舞]多彩翻领纯棉polo",
    "original_price": "￥299",
    "promo_price": "￥139",
    "percent": "",
    "num": "已抢0件",
    "href": "//item.taobao.com/item.htm?id=17393305787&umpChannel=qianggou&u_channel=qianggou",
    "img": "//g.alicdn.com/s.gif"
  },
  {
    "title": "品冠膳食 泰国香米长粒香5斤装",
    "original_price": "￥196",
    "promo_price": "￥29",
    "percent": "已抢购63%",
    "num": "已抢2500件",
    "href": "//item.taobao.com/item.htm?id=580325446564&umpChannel=qianggou&u_channel=qianggou",
    "img": "//g.alicdn.com/s.gif"
  },
  {
    "title": "PICOOC有品mini智能体脂秤体重",
    "original_price": "￥369",
    "promo_price": "￥89",
    "percent": "已抢购25%",
    "num": "已抢392件",
    "href": "//item.taobao.com/item.htm?id=521066652216&umpChannel=qianggou&u_channel=qianggou",
    "img": "//g.alicdn.com/s.gif"
  },
  {
    "title": "德力西无框大板开关插座套装",
    "original_price": "￥540.9",
    "promo_price": "￥236",
    "percent": "已抢购76%",
    "num": "已抢241件",
    "href": "//item.taobao.com/item.htm?id=17536635426&umpChannel=qianggou&u_channel=qianggou",
    "img": "//g.alicdn.com/s.gif"
  },
  {
    "title": "美的空调扇遥控家用移动冷风机",
    "original_price": "￥1398",
    "promo_price": "￥649",
    "percent": "已抢购29%",
    "num": "已抢36件",
    "href": "//item.taobao.com/item.htm?id=586996848641&umpChannel=qianggou&u_channel=qianggou",
    "img": "//g.alicdn.com/s.gif"
  },
  {
    "title": "健康小麦-防霉防滑易清洗砧板",
    "original_price": "￥128",
    "promo_price": "￥8.8",
    "percent": "已抢购59%",
    "num": "已抢3954件",
    "href": "//item.taobao.com/item.htm?id=537524790998&umpChannel=qianggou&u_channel=qianggou",
    "img": "//g.alicdn.com/s.gif"
  },
  {
    "title": "正宗潮汕手打牛肉丸牛筋丸2斤",
    "original_price": "￥118",
    "promo_price": "￥66.8",
    "percent": "已抢购68%",
    "num": "已抢741件",
    "href": "//item.taobao.com/item.htm?id=567529940849&umpChannel=qianggou&u_channel=qianggou",
    "img": "//g.alicdn.com/s.gif"
  },
  {
    "title": "儿童电动车四轮汽车遥控玩具车",
    "original_price": "￥1196",
    "promo_price": "￥588",
    "percent": "",
    "num": "已抢0件",
    "href": "//item.taobao.com/item.htm?id=565221586903&umpChannel=qianggou&u_channel=qianggou",
    "img": "//g.alicdn.com/s.gif"
  },
  {
    "title": "烟台大樱桃车厘子3斤",
    "original_price": "￥239",
    "promo_price": "￥49",
    "percent": "已抢购2%",
    "num": "已抢152件",
    "href": "//item.taobao.com/item.htm?id=564928309969&umpChannel=qianggou&u_channel=qianggou",
    "img": "//g.alicdn.com/s.gif"
  },
  {
    "title": "美人G计火山能量石科技塑身衣",
    "original_price": "￥258",
    "promo_price": "￥78",
    "percent": "已抢购1%",
    "num": "已抢1件",
    "href": "//item.taobao.com/item.htm?id=583218499632&umpChannel=qianggou&u_channel=qianggou",
    "img": "//g.alicdn.com/s.gif"
  },
  {
    "title": "㊣求差评❗丰乳5cm升D杯变波霸",
    "original_price": "￥368",
    "promo_price": "￥229",
    "percent": "已抢购70%",
    "num": "已抢194件",
    "href": "//item.taobao.com/item.htm?id=578252988681&umpChannel=qianggou&u_channel=qianggou",
    "img": "//g.alicdn.com/s.gif"
  },
  {
    "title": "买3发8独头发酵黑蒜",
    "original_price": "￥98",
    "promo_price": "￥39.9",
    "percent": "已抢购91%",
    "num": "已抢2713件",
    "href": "//item.taobao.com/item.htm?id=573363895360&umpChannel=qianggou&u_channel=qianggou",
    "img": "//g.alicdn.com/s.gif"
  },
  {
    "title": "飞科毛衣服起球修剪器充电式衣",
    "original_price": "￥129",
    "promo_price": "￥33",
    "percent": "",
    "num": "已抢0件",
    "href": "//item.taobao.com/item.htm?id=40584277328&umpChannel=qianggou&u_channel=qianggou",
    "img": "//g.alicdn.com/s.gif"
  },
  {
    "title": "中国风纯棉四件套全棉床单被套",
    "original_price": "￥478",
    "promo_price": "￥163",
    "percent": "已抢购5%",
    "num": "已抢47件",
    "href": "//item.taobao.com/item.htm?id=587025772879&umpChannel=qianggou&u_channel=qianggou",
    "img": "//g.alicdn.com/s.gif"
  },
  {
    "title": "汤臣倍健乳清蛋白粉增健肌粉",
    "original_price": "￥398",
    "promo_price": "￥160",
    "percent": "已抢购57%",
    "num": "已抢281件",
    "href": "//item.taobao.com/item.htm?id=543570038092&umpChannel=qianggou&u_channel=qianggou",
    "img": "//g.alicdn.com/s.gif"
  },
  {
    "title": "大连野生带鱼罐头4罐 软刺可食",
    "original_price": "￥80",
    "promo_price": "￥39.8",
    "percent": "已抢购76%",
    "num": "已抢1520件",
    "href": "//item.taobao.com/item.htm?id=552379845684&umpChannel=qianggou&u_channel=qianggou",
    "img": "//g.alicdn.com/s.gif"
  },
  {
    "title": "女童连衣裙夏装2019新款洋气",
    "original_price": "￥109",
    "promo_price": "￥65",
    "percent": "已抢购8%",
    "num": "已抢119件",
    "href": "//item.taobao.com/item.htm?id=590753762460&umpChannel=qianggou&u_channel=qianggou",
    "img": "//g.alicdn.com/s.gif"
  },
  {
    "title": "水星家纺二合一蚕丝被",
    "original_price": "￥2199",
    "promo_price": "￥999",
    "percent": "",
    "num": "已抢9件",
    "href": "//item.taobao.com/item.htm?id=522211542031&umpChannel=qianggou&u_channel=qianggou",
    "img": "//g.alicdn.com/s.gif"
  },
  {
    "title": "柳江人家广西正宗柳州螺蛳粉原",
    "original_price": "￥98",
    "promo_price": "￥59.8",
    "percent": "",
    "num": "已抢0件",
    "href": "//item.taobao.com/item.htm?id=549906105947&umpChannel=qianggou&u_channel=qianggou",
    "img": "//g.alicdn.com/s.gif"
  },
  {
    "title": "汉服改良旗袍式连衣裙2019新款",
    "original_price": "￥238",
    "promo_price": "￥228",
    "percent": "",
    "num": "已抢0件",
    "href": "//item.taobao.com/item.htm?id=592871791085&umpChannel=qianggou&u_channel=qianggou",
    "img": "//g.alicdn.com/s.gif"
  },
  {
    "title": "真皮汽车座套全包专车定制坐垫",
    "original_price": "￥999",
    "promo_price": "￥497",
    "percent": "已抢购37%",
    "num": "已抢83件",
    "href": "//item.taobao.com/item.htm?id=568060272885&umpChannel=qianggou&u_channel=qianggou",
    "img": "//g.alicdn.com/s.gif"
  },
  {
    "title": "木马人简易落地衣帽架卧室",
    "original_price": "￥199",
    "promo_price": "￥49.9",
    "percent": "已抢购12%",
    "num": "已抢137件",
    "href": "//item.taobao.com/item.htm?id=565028660668&umpChannel=qianggou&u_channel=qianggou",
    "img": "//g.alicdn.com/s.gif"
  },
  {
    "title": "德亚全脂牛奶30盒装",
    "original_price": "￥199",
    "promo_price": "￥79.9",
    "percent": "",
    "num": "已抢0件",
    "href": "//item.taobao.com/item.htm?id=524455249773&umpChannel=qianggou&u_channel=qianggou",
    "img": "//g.alicdn.com/s.gif"
  },
  {
    "title": "乔丹男鞋情侣板鞋",
    "original_price": "￥239",
    "promo_price": "￥119",
    "percent": "已抢购20%",
    "num": "已抢288件",
    "href": "//item.taobao.com/item.htm?id=546663961832&umpChannel=qianggou&u_channel=qianggou",
    "img": "//g.alicdn.com/s.gif"
  },
  {
    "title": "逐浪 北海烤海鸭蛋50g*6枚",
    "original_price": "￥159.6",
    "promo_price": "￥9.9",
    "percent": "已抢购14%",
    "num": "已抢1371件",
    "href": "//item.taobao.com/item.htm?id=587707544809&umpChannel=qianggou&u_channel=qianggou",
    "img": "//g.alicdn.com/s.gif"
  },
  {
    "title": "[爆卖18万件]森马学生双肩包",
    "original_price": "￥198",
    "promo_price": "￥69.9",
    "percent": "已抢购12%",
    "num": "已抢182件",
    "href": "//item.taobao.com/item.htm?id=534708761957&umpChannel=qianggou&u_channel=qianggou",
    "img": "//g.alicdn.com/s.gif"
  },
  {
    "title": "杜夫人 卤料包 卤肉卤菜卤蛋",
    "original_price": "￥39",
    "promo_price": "￥16.8",
    "percent": "已抢购11%",
    "num": "已抢320件",
    "href": "//item.taobao.com/item.htm?id=575773795856&umpChannel=qianggou&u_channel=qianggou",
    "img": "//g.alicdn.com/s.gif"
  },
  {
    "title": "六鳌红蜜薯香甜美味2斤尝鲜",
    "original_price": "￥52",
    "promo_price": "￥9.9",
    "percent": "已抢购4%",
    "num": "已抢174件",
    "href": "//item.taobao.com/item.htm?id=589297789758&umpChannel=qianggou&u_channel=qianggou",
    "img": "//g.alicdn.com/s.gif"
  },
  {
    "title": "荣事达强劲蒸汽挂烫机家用",
    "original_price": "￥798",
    "promo_price": "￥159",
    "percent": "已抢购39%",
    "num": "已抢233件",
    "href": "//item.taobao.com/item.htm?id=557707980102&umpChannel=qianggou&u_channel=qianggou",
    "img": "//g.alicdn.com/s.gif"
  },
  {
    "title": "苹果X/XS/MAX/XR钢化膜",
    "original_price": "￥216",
    "promo_price": "￥58",
    "percent": "已抢购45%",
    "num": "已抢267件",
    "href": "//item.taobao.com/item.htm?id=574205021356&umpChannel=qianggou&u_channel=qianggou",
    "img": "//g.alicdn.com/s.gif"
  },
  {
    "title": "足疗机全自动家用脚部按摩器",
    "original_price": "￥1688",
    "promo_price": "￥319",
    "percent": "已抢购49%",
    "num": "已抢97件",
    "href": "//item.taobao.com/item.htm?id=566970122182&umpChannel=qianggou&u_channel=qianggou",
    "img": "//g.alicdn.com/s.gif"
  },
  {
    "title": "抢:热卖爆款 尼龙防水防盗背包",
    "original_price": "￥399",
    "promo_price": "￥69",
    "percent": "已抢购23%",
    "num": "已抢178件",
    "href": "//item.taobao.com/item.htm?id=550872151672&umpChannel=qianggou&u_channel=qianggou",
    "img": "//g.alicdn.com/s.gif"
  },
  {
    "title": "道地滋补养胃养生铁皮石斛鲜条",
    "original_price": "￥500",
    "promo_price": "￥155",
    "percent": "已抢购91%",
    "num": "已抢589件",
    "href": "//item.taobao.com/item.htm?id=574417032052&umpChannel=qianggou&u_channel=qianggou",
    "img": "//g.alicdn.com/s.gif"
  },
  {
    "title": "防晒晴雨伞",
    "original_price": "￥39.9",
    "promo_price": "￥29.8",
    "percent": "已抢购32%",
    "num": "已抢1111件",
    "href": "//item.taobao.com/item.htm?id=552765902926&umpChannel=qianggou&u_channel=qianggou",
    "img": "//g.alicdn.com/s.gif"
  },
  {
    "title": "阔腿裤女夏薄款2019新款高腰ce",
    "original_price": "￥89",
    "promo_price": "￥89",
    "percent": "",
    "num": "已抢0件",
    "href": "//item.taobao.com/item.htm?id=570452571189&umpChannel=qianggou&u_channel=qianggou",
    "img": "//g.alicdn.com/s.gif"
  },
  {
    "title": "手持式喷码机打生产日期打码机",
    "original_price": "￥3999",
    "promo_price": "￥1080",
    "percent": "已抢购65%",
    "num": "已抢57件",
    "href": "//item.taobao.com/item.htm?id=578446074779&umpChannel=qianggou&u_channel=qianggou",
    "img": "//g.alicdn.com/s.gif"
  }
]