[
  {
    "name": "杨晨晨",
    "href": "https://www.meitulu.com/item/15233.html",
    "thumbnail": "https://mtl.ttsqgs.com/images/img/15233/0.jpg",
    "count": "53",
    "tag": "美胸、美乳、御姐、女神、极品"
  },
  {
    "name": "萌妹子",
    "href": "https://www.meitulu.com/item/15284.html",
    "thumbnail": "https://mtl.ttsqgs.com/images/img/15284/0.jpg",
    "count": "100",
    "tag": "萌妹子、清纯、日本美女、女神"
  },
  {
    "name": "性感",
    "href": "https://www.meitulu.com/item/6056.html",
    "thumbnail": "https://mtl.ttsqgs.com/images/img/6056/0.jpg",
    "count": "68",
    "tag": "性感、长腿、高跟鞋、可爱、萌妹子"
  },
  {
    "name": "绮里嘉",
    "href": "https://www.meitulu.com/item/7536.html",
    "thumbnail": "https://mtl.ttsqgs.com/images/img/7536/0.jpg",
    "count": "50",
    "tag": "清新、女神、性感、时尚、嫩模、户外、养眼"
  },
  {
    "name": "何梦兮",
    "href": "https://www.meitulu.com/item/10153.html",
    "thumbnail": "https://mtl.ttsqgs.com/images/img/10153/0.jpg",
    "count": "62",
    "tag": "萌妹子、女仆、嫩模、校服、情趣、极品、美少女"
  },
  {
    "name": "王沫儿",
    "href": "https://www.meitulu.com/item/10371.html",
    "thumbnail": "https://mtl.ttsqgs.com/images/img/10371/0.jpg",
    "count": "51",
    "tag": "性感、嫩模、长腿、内衣、美胸、极品、时尚"
  },
  {
    "name": "Angela喜欢猫",
    "href": "https://www.meitulu.com/item/15554.html",
    "thumbnail": "https://mtl.ttsqgs.com/images/img/15554/0.jpg",
    "count": "50",
    "tag": "嫩模、丝袜美腿、灰丝、丝袜美女"
  },
  {
    "name": "日暮玲",
    "href": "https://www.meitulu.com/item/17047.html",
    "thumbnail": "https://mtl.ttsqgs.com/images/img/17047/0.jpg",
    "count": "70",
    "tag": "COSPLAY、女仆、粉嫩"
  },
  {
    "name": "SISY思",
    "href": "https://www.meitulu.com/item/5736.html",
    "thumbnail": "https://mtl.ttsqgs.com/images/img/5736/0.jpg",
    "count": "60",
    "tag": "极品、清新、女神、户外、养眼、美胸、嫩模、甜美、气质"
  },
  {
    "name": "妹子",
    "href": "https://www.meitulu.com/item/15269.html",
    "thumbnail": "https://mtl.ttsqgs.com/images/img/15269/0.jpg",
    "count": "112",
    "tag": "妹子、日本美女、性感"
  },
  {
    "name": "LalaBaby啦啦",
    "href": "https://www.meitulu.com/item/5710.html",
    "thumbnail": "https://mtl.ttsqgs.com/images/img/5710/0.jpg",
    "count": "56",
    "tag": "性感、女神、美胸、泳装、极品、美胸、爆乳"
  },
  {
    "name": "清水ゆう子",
    "href": "https://www.meitulu.com/item/6.html",
    "thumbnail": "https://mtl.ttsqgs.com/images/img/6/0.jpg",
    "count": "65",
    "tag": "极品、清纯、清新"
  },
  {
    "name": "杨上萱",
    "href": "https://www.meitulu.com/item/7554.html",
    "thumbnail": "https://mtl.ttsqgs.com/images/img/7554/0.jpg",
    "count": "50",
    "tag": "女神、制服、极品、清新、养眼、户外、嫩模"
  },
  {
    "name": "赵芸",
    "href": "https://www.meitulu.com/item/6903.html",
    "thumbnail": "https://mtl.ttsqgs.com/images/img/6903/0.jpg",
    "count": "44",
    "tag": "女神、清新、户外、养眼、唯美、极品、台湾美女"
  },
  {
    "name": "天木纯",
    "href": "https://www.meitulu.com/item/12478.html",
    "thumbnail": "https://mtl.ttsqgs.com/images/img/12478/0.jpg",
    "count": "100",
    "tag": "巨乳、美少女、萌妹子"
  },
  {
    "name": "刘飞儿",
    "href": "https://www.meitulu.com/item/5786.html",
    "thumbnail": "https://mtl.ttsqgs.com/images/img/5786/0.jpg",
    "count": "62",
    "tag": "极品、嫩模、养眼、网络红人、清新、女神、户外、篮球宝贝"
  },
  {
    "name": "大泽玲美",
    "href": "https://www.meitulu.com/item/17888.html",
    "thumbnail": "https://mtl.ttsqgs.com/images/img/17888/0.jpg",
    "count": "40",
    "tag": "美胸"
  },
  {
    "name": "日本美女",
    "href": "https://www.meitulu.com/item/17887.html",
    "thumbnail": "https://mtl.ttsqgs.com/images/img/17887/0.jpg",
    "count": "40",
    "tag": "日本美女、少妇、妩媚"
  },
  {
    "name": "日本美女",
    "href": "https://www.meitulu.com/item/17886.html",
    "thumbnail": "https://mtl.ttsqgs.com/images/img/17886/0.jpg",
    "count": "40",
    "tag": "日本美女、少妇"
  },
  {
    "name": "近藤麻美",
    "href": "https://www.meitulu.com/item/17885.html",
    "thumbnail": "https://mtl.ttsqgs.com/images/img/17885/0.jpg",
    "count": "39",
    "tag": "校服、美少女"
  },
  {
    "name": "香月りお",
    "href": "https://www.meitulu.com/item/17884.html",
    "thumbnail": "https://mtl.ttsqgs.com/images/img/17884/0.jpg",
    "count": "35",
    "tag": "居家、日本美女、美少女"
  },
  {
    "name": "高梨あい",
    "href": "https://www.meitulu.com/item/17883.html",
    "thumbnail": "https://mtl.ttsqgs.com/images/img/17883/0.jpg",
    "count": "35",
    "tag": "清纯、妹子"
  },
  {
    "name": "池田なぎさ",
    "href": "https://www.meitulu.com/item/17882.html",
    "thumbnail": "https://mtl.ttsqgs.com/images/img/17882/0.jpg",
    "count": "50",
    "tag": "内衣、长筒袜"
  },
  {
    "name": "山中真由美",
    "href": "https://www.meitulu.com/item/17881.html",
    "thumbnail": "https://mtl.ttsqgs.com/images/img/17881/0.jpg",
    "count": "30",
    "tag": "诱惑"
  },
  {
    "name": "真奈",
    "href": "https://www.meitulu.com/item/17880.html",
    "thumbnail": "https://mtl.ttsqgs.com/images/img/17880/0.jpg",
    "count": "75",
    "tag": "死库水、湿身"
  },
  {
    "name": "香月りお",
    "href": "https://www.meitulu.com/item/17879.html",
    "thumbnail": "https://mtl.ttsqgs.com/images/img/17879/0.jpg",
    "count": "31",
    "tag": "校服、清纯、美少女"
  },
  {
    "name": "香月りお",
    "href": "https://www.meitulu.com/item/17878.html",
    "thumbnail": "https://mtl.ttsqgs.com/images/img/17878/0.jpg",
    "count": "57",
    "tag": "兔女郎、COSPLAY"
  },
  {
    "name": "山中真由美",
    "href": "https://www.meitulu.com/item/17877.html",
    "thumbnail": "https://mtl.ttsqgs.com/images/img/17877/0.jpg",
    "count": "30",
    "tag": "内衣、丁字裤"
  },
  {
    "name": "真奈",
    "href": "https://www.meitulu.com/item/17876.html",
    "thumbnail": "https://mtl.ttsqgs.com/images/img/17876/0.jpg",
    "count": "40",
    "tag": "睡衣、床照"
  },
  {
    "name": "真奈",
    "href": "https://www.meitulu.com/item/17875.html",
    "thumbnail": "https://mtl.ttsqgs.com/images/img/17875/0.jpg",
    "count": "60",
    "tag": "居家、日本美女、妹子"
  },
  {
    "name": "香月りお",
    "href": "https://www.meitulu.com/item/17874.html",
    "thumbnail": "https://mtl.ttsqgs.com/images/img/17874/0.jpg",
    "count": "58",
    "tag": "女仆"
  },
  {
    "name": "高梨あい",
    "href": "https://www.meitulu.com/item/17873.html",
    "thumbnail": "https://mtl.ttsqgs.com/images/img/17873/0.jpg",
    "count": "43",
    "tag": "内衣、美少女"
  },
  {
    "name": "池田なぎさ",
    "href": "https://www.meitulu.com/item/17872.html",
    "thumbnail": "https://mtl.ttsqgs.com/images/img/17872/0.jpg",
    "count": "43",
    "tag": "死库水"
  },
  {
    "name": "山中真由美",
    "href": "https://www.meitulu.com/item/17871.html",
    "thumbnail": "https://mtl.ttsqgs.com/images/img/17871/0.jpg",
    "count": "45",
    "tag": "日本美女、少妇"
  },
  {
    "name": "真奈",
    "href": "https://www.meitulu.com/item/17870.html",
    "thumbnail": "https://mtl.ttsqgs.com/images/img/17870/0.jpg",
    "count": "69",
    "tag": "居家"
  },
  {
    "name": "香月りお",
    "href": "https://www.meitulu.com/item/17869.html",
    "thumbnail": "https://mtl.ttsqgs.com/images/img/17869/0.jpg",
    "count": "50",
    "tag": "美少女"
  }
]