{
  "state": 0,
  "msg": "",
  "data": {
    "title": "",
    "info": "补充说明： 女神@杨晨晨sugar桌球魅惑私房写真发布，又将是一年月圆夜，在此和晨晨祝愿大家身体安康，中秋快乐，合家团圆，全套写真共64P"
  },
  "dataList": [
    {
      "name": "[XIUREN秀人] No.1169 女神@杨晨晨sugar桌球魅惑私房写真第1张",
      "src": "https://mtl.ttsqgs.com/images/img/16274/1.jpg"
    },
    {
      "name": "[XIUREN秀人] No.1169 女神@杨晨晨sugar桌球魅惑私房写真第2张",
      "src": "https://mtl.ttsqgs.com/images/img/16274/2.jpg"
    },
    {
      "name": "[XIUREN秀人] No.1169 女神@杨晨晨sugar桌球魅惑私房写真第3张",
      "src": "https://mtl.ttsqgs.com/images/img/16274/3.jpg"
    },
    {
      "name": "[XIUREN秀人] No.1169 女神@杨晨晨sugar桌球魅惑私房写真第4张",
      "src": "https://mtl.ttsqgs.com/images/img/16274/4.jpg"
    }
  ]
}