[
  {
    "name": "伍月yuer",
    "href": "https://www.meitulu.com/item/7144.html",
    "thumbnail": "https://mtl.ttsqgs.com/images/img/7144/0.jpg",
    "count": "53",
    "tag": "可爱、甜美、女神、萌妹子、床照、妩媚、内衣、美胸、清纯"
  },
  {
    "name": "大原優乃",
    "href": "https://www.meitulu.com/item/16718.html",
    "thumbnail": "https://mtl.ttsqgs.com/images/img/16718/0.jpg",
    "count": "79",
    "tag": "妹子、比基尼、嫩模"
  },
  {
    "name": "姐妹花",
    "href": "https://www.meitulu.com/item/16154.html",
    "thumbnail": "https://mtl.ttsqgs.com/images/img/16154/0.jpg",
    "count": "61",
    "tag": "姐妹花、OL、丝袜诱惑、丝足"
  },
  {
    "name": "彩川ひなの",
    "href": "https://www.meitulu.com/item/15323.html",
    "thumbnail": "https://mtl.ttsqgs.com/images/img/15323/0.jpg",
    "count": "100",
    "tag": "美胸、美乳、性感、女神"
  },
  {
    "name": "孟狐狸",
    "href": "https://www.meitulu.com/item/6440.html",
    "thumbnail": "https://mtl.ttsqgs.com/images/img/6440/0.jpg",
    "count": "58",
    "tag": "尤物、大尺度、情趣、诱惑、网络红人、熟女、极品"
  },
  {
    "name": "萝莉",
    "href": "https://www.meitulu.com/item/10065.html",
    "thumbnail": "https://mtl.ttsqgs.com/images/img/10065/0.jpg",
    "count": "30",
    "tag": "萝莉、萌妹子、美少女、清纯、睡衣、可爱、极品"
  },
  {
    "name": "余馨妍",
    "href": "https://www.meitulu.com/item/15348.html",
    "thumbnail": "https://mtl.ttsqgs.com/images/img/15348/0.jpg",
    "count": "39",
    "tag": "丝袜诱惑、肉丝袜、御姐"
  },
  {
    "name": "涟漪sara",
    "href": "https://www.meitulu.com/item/9620.html",
    "thumbnail": "https://mtl.ttsqgs.com/images/img/9620/0.jpg",
    "count": "25",
    "tag": "性感、美臀、情趣、嫩模、诱惑、御姐"
  },
  {
    "name": "丝袜美腿",
    "href": "https://www.meitulu.com/item/14408.html",
    "thumbnail": "https://mtl.ttsqgs.com/images/img/14408/0.jpg",
    "count": "52",
    "tag": "丝袜美腿、热裤、牛仔、清新"
  },
  {
    "name": "Moa小姐",
    "href": "https://www.meitulu.com/item/7488.html",
    "thumbnail": "https://mtl.ttsqgs.com/images/img/7488/0.jpg",
    "count": "63",
    "tag": "性感、嫩模、爆乳、美胸、情趣、极品、比基尼"
  },
  {
    "name": "妹子",
    "href": "https://www.meitulu.com/item/15844.html",
    "thumbnail": "https://mtl.ttsqgs.com/images/img/15844/0.jpg",
    "count": "77",
    "tag": "妹子、清纯、极品、清新、萌妹子"
  },
  {
    "name": "赵小米",
    "href": "https://www.meitulu.com/item/7459.html",
    "thumbnail": "https://mtl.ttsqgs.com/images/img/7459/0.jpg",
    "count": "53",
    "tag": "牛仔、美臀、诱惑、比基尼、热裤、嫩模、极品"
  },
  {
    "name": "西野翔",
    "href": "https://www.meitulu.com/item/3128.html",
    "thumbnail": "https://mtl.ttsqgs.com/images/img/3128/0.jpg",
    "count": "95",
    "tag": "少妇、比基尼、湿身"
  },
  {
    "name": "植村亚加莉",
    "href": "https://www.meitulu.com/item/10258.html",
    "thumbnail": "https://mtl.ttsqgs.com/images/img/10258/0.jpg",
    "count": "109",
    "tag": "清新、女神、养眼、极品、唯美、日本美女"
  },
  {
    "name": "展如",
    "href": "https://www.meitulu.com/item/7899.html",
    "thumbnail": "https://mtl.ttsqgs.com/images/img/7899/0.jpg",
    "count": "53",
    "tag": "女神、极品、蕾丝、湿身、丝袜诱惑"
  },
  {
    "name": "蔡乐儿",
    "href": "https://www.meitulu.com/item/10373.html",
    "thumbnail": "https://mtl.ttsqgs.com/images/img/10373/0.jpg",
    "count": "57",
    "tag": "女神、时尚、街拍、车模、嫩模、户外、丝袜美腿"
  },
  {
    "name": "大泽玲美",
    "href": "https://www.meitulu.com/item/17888.html",
    "thumbnail": "https://mtl.ttsqgs.com/images/img/17888/0.jpg",
    "count": "40",
    "tag": "美胸"
  },
  {
    "name": "日本美女",
    "href": "https://www.meitulu.com/item/17887.html",
    "thumbnail": "https://mtl.ttsqgs.com/images/img/17887/0.jpg",
    "count": "40",
    "tag": "日本美女、少妇、妩媚"
  },
  {
    "name": "日本美女",
    "href": "https://www.meitulu.com/item/17886.html",
    "thumbnail": "https://mtl.ttsqgs.com/images/img/17886/0.jpg",
    "count": "40",
    "tag": "日本美女、少妇"
  },
  {
    "name": "近藤麻美",
    "href": "https://www.meitulu.com/item/17885.html",
    "thumbnail": "https://mtl.ttsqgs.com/images/img/17885/0.jpg",
    "count": "39",
    "tag": "校服、美少女"
  },
  {
    "name": "香月りお",
    "href": "https://www.meitulu.com/item/17884.html",
    "thumbnail": "https://mtl.ttsqgs.com/images/img/17884/0.jpg",
    "count": "35",
    "tag": "居家、日本美女、美少女"
  },
  {
    "name": "高梨あい",
    "href": "https://www.meitulu.com/item/17883.html",
    "thumbnail": "https://mtl.ttsqgs.com/images/img/17883/0.jpg",
    "count": "35",
    "tag": "清纯、妹子"
  },
  {
    "name": "池田なぎさ",
    "href": "https://www.meitulu.com/item/17882.html",
    "thumbnail": "https://mtl.ttsqgs.com/images/img/17882/0.jpg",
    "count": "50",
    "tag": "内衣、长筒袜"
  },
  {
    "name": "山中真由美",
    "href": "https://www.meitulu.com/item/17881.html",
    "thumbnail": "https://mtl.ttsqgs.com/images/img/17881/0.jpg",
    "count": "30",
    "tag": "诱惑"
  },
  {
    "name": "真奈",
    "href": "https://www.meitulu.com/item/17880.html",
    "thumbnail": "https://mtl.ttsqgs.com/images/img/17880/0.jpg",
    "count": "75",
    "tag": "死库水、湿身"
  },
  {
    "name": "香月りお",
    "href": "https://www.meitulu.com/item/17879.html",
    "thumbnail": "https://mtl.ttsqgs.com/images/img/17879/0.jpg",
    "count": "31",
    "tag": "校服、清纯、美少女"
  },
  {
    "name": "香月りお",
    "href": "https://www.meitulu.com/item/17878.html",
    "thumbnail": "https://mtl.ttsqgs.com/images/img/17878/0.jpg",
    "count": "57",
    "tag": "兔女郎、COSPLAY"
  },
  {
    "name": "山中真由美",
    "href": "https://www.meitulu.com/item/17877.html",
    "thumbnail": "https://mtl.ttsqgs.com/images/img/17877/0.jpg",
    "count": "30",
    "tag": "内衣、丁字裤"
  },
  {
    "name": "真奈",
    "href": "https://www.meitulu.com/item/17876.html",
    "thumbnail": "https://mtl.ttsqgs.com/images/img/17876/0.jpg",
    "count": "40",
    "tag": "睡衣、床照"
  },
  {
    "name": "真奈",
    "href": "https://www.meitulu.com/item/17875.html",
    "thumbnail": "https://mtl.ttsqgs.com/images/img/17875/0.jpg",
    "count": "60",
    "tag": "居家、日本美女、妹子"
  },
  {
    "name": "香月りお",
    "href": "https://www.meitulu.com/item/17874.html",
    "thumbnail": "https://mtl.ttsqgs.com/images/img/17874/0.jpg",
    "count": "58",
    "tag": "女仆"
  },
  {
    "name": "高梨あい",
    "href": "https://www.meitulu.com/item/17873.html",
    "thumbnail": "https://mtl.ttsqgs.com/images/img/17873/0.jpg",
    "count": "43",
    "tag": "内衣、美少女"
  },
  {
    "name": "池田なぎさ",
    "href": "https://www.meitulu.com/item/17872.html",
    "thumbnail": "https://mtl.ttsqgs.com/images/img/17872/0.jpg",
    "count": "43",
    "tag": "死库水"
  },
  {
    "name": "山中真由美",
    "href": "https://www.meitulu.com/item/17871.html",
    "thumbnail": "https://mtl.ttsqgs.com/images/img/17871/0.jpg",
    "count": "45",
    "tag": "日本美女、少妇"
  },
  {
    "name": "真奈",
    "href": "https://www.meitulu.com/item/17870.html",
    "thumbnail": "https://mtl.ttsqgs.com/images/img/17870/0.jpg",
    "count": "69",
    "tag": "居家"
  },
  {
    "name": "香月りお",
    "href": "https://www.meitulu.com/item/17869.html",
    "thumbnail": "https://mtl.ttsqgs.com/images/img/17869/0.jpg",
    "count": "50",
    "tag": "美少女"
  }
]